^C:\PROGRAM FILES\MAXON\CINEMA 4D R14 DEMO\PLUGINS\NOXPLUGINC4D\OBJ\NOXPLUGINC4D\WIN32_RELEASE\OBJ\BMFLIP.OBJ|C:\PROGRAM FILES\MAXON\CINEMA 4D R14 DEMO\PLUGINS\NOXPLUGINC4D\OBJ\NOXPLUGINC4D\WIN32_RELEASE\OBJ\MAIN.OBJ
/ERRORREPORT:PROMPT /OUT:"C:\Program Files\MAXON\CINEMA 4D R14 Demo\plugins\NOXpluginC4D\\NOXpluginC4D.cdl" /INCREMENTAL:NO /NOLOGO /LIBPATH:"C:\Program Files\MAXON\CINEMA 4D R14 Demo\resource\_api_lib" _api_Win32_Release.lib kernel32.lib user32.lib gdi32.lib winspool.lib comdlg32.lib advapi32.lib shell32.lib ole32.lib oleaut32.lib uuid.lib odbc32.lib odbccp32.lib /NODEFAULTLIB:LIBCD /MANIFEST:NO /DEBUG /PDB:"C:\Program Files\MAXON\CINEMA 4D R14 Demo\plugins\NOXpluginC4D\obj\NOXpluginC4D_Win32_Release.pdb" /SUBSYSTEM:WINDOWS /OPT:REF /OPT:ICF /LTCG /TLBID:1 /DYNAMICBASE:NO /FIXED:NO /NXCOMPAT /IMPLIB:"C:\Program Files\MAXON\CINEMA 4D R14 Demo\plugins\NOXpluginC4D\obj\NOXpluginC4D\Win32_Release\NOXpluginC4D.cdl.lib" /MACHINE:X86 /DLL "C:\Program Files\MAXON\CINEMA 4D R14 Demo\plugins\NOXpluginC4D\obj\NOXpluginC4D\Win32_Release\obj\bmflip.obj"
"C:\Program Files\MAXON\CINEMA 4D R14 Demo\plugins\NOXpluginC4D\obj\NOXpluginC4D\Win32_Release\obj\main.obj"
