^C:\PROGRAM FILES\MAXON\CINEMA 4D R14 DEMO\PLUGINS\NOXPLUGINC4D\SOURCE\BMFLIP.CPP
/c /I.\source /I.\res /I.\res\description /I../../resource\_api /I../../resource\_api\c4d_preview /I../../resource\_api\c4d_customgui /I../../resource\_api\c4d_libs /I../../resource\_api\c4d_gv /I../../resource\modules\Modeling\res\description /I../../resource\res\description /I../../resource\modules\objects\res\description /I../../resource\_api_maxon\source /I../../resource\_api_maxon\source\sse2 /I../../resource\_api_maxon\source\browserpresets /Zi /nologo /W3 /WX- /Od /D WIN32 /D _DEBUG /D _WINDOWS /D WIN64 /D __PC /D _DEBUG /D _WINDOWS /D __C4D_64BIT /D _CRT_SECURE_NO_WARNINGS /Gm- /RTC1 /MTd /GS /Gy- /fp:precise /Zc:wchar_t- /Zc:forScope /openmp- /Fo"C:\PROGRAM FILES\MAXON\CINEMA 4D R14 DEMO\PLUGINS\NOXPLUGINC4D\OBJ\NOXPLUGINC4D\X64_DEBUG\OBJ\\" /Fd"C:\PROGRAM FILES\MAXON\CINEMA 4D R14 DEMO\PLUGINS\NOXPLUGINC4D\OBJ\NOXPLUGINC4D\X64_DEBUG\VC110.PDB" /Gd /TP /wd4062 /wd4100 /wd4127 /wd4131 /wd4201 /wd4210 /wd4242 /wd4244 /wd4245 /wd4305 /wd4310 /wd4324 /wd4355 /wd4365 /wd4389 /wd4505 /wd4512 /wd4611 /wd4706 /wd4718 /wd4740 /wd4748 /wd4996 /FC /vmg /vms /w44263 /we4264 /vmg /vms /w44263 /we4264  C:\PROGRAM FILES\MAXON\CINEMA 4D R14 DEMO\PLUGINS\NOXPLUGINC4D\SOURCE\BMFLIP.CPP
^C:\PROGRAM FILES\MAXON\CINEMA 4D R14 DEMO\PLUGINS\NOXPLUGINC4D\SOURCE\MAIN.CPP
/c /I.\source /I.\res /I.\res\description /I../../resource\_api /I../../resource\_api\c4d_preview /I../../resource\_api\c4d_customgui /I../../resource\_api\c4d_libs /I../../resource\_api\c4d_gv /I../../resource\modules\Modeling\res\description /I../../resource\res\description /I../../resource\modules\objects\res\description /I../../resource\_api_maxon\source /I../../resource\_api_maxon\source\sse2 /I../../resource\_api_maxon\source\browserpresets /Zi /nologo /W3 /WX- /Od /D WIN32 /D _DEBUG /D _WINDOWS /D WIN64 /D __PC /D _DEBUG /D _WINDOWS /D __C4D_64BIT /D _CRT_SECURE_NO_WARNINGS /Gm- /RTC1 /MTd /GS /Gy- /fp:precise /Zc:wchar_t- /Zc:forScope /openmp- /Fo"C:\PROGRAM FILES\MAXON\CINEMA 4D R14 DEMO\PLUGINS\NOXPLUGINC4D\OBJ\NOXPLUGINC4D\X64_DEBUG\OBJ\\" /Fd"C:\PROGRAM FILES\MAXON\CINEMA 4D R14 DEMO\PLUGINS\NOXPLUGINC4D\OBJ\NOXPLUGINC4D\X64_DEBUG\VC110.PDB" /Gd /TP /wd4062 /wd4100 /wd4127 /wd4131 /wd4201 /wd4210 /wd4242 /wd4244 /wd4245 /wd4305 /wd4310 /wd4324 /wd4355 /wd4365 /wd4389 /wd4505 /wd4512 /wd4611 /wd4706 /wd4718 /wd4740 /wd4748 /wd4996 /FC /vmg /vms /w44263 /we4264 /vmg /vms /w44263 /we4264  C:\PROGRAM FILES\MAXON\CINEMA 4D R14 DEMO\PLUGINS\NOXPLUGINC4D\SOURCE\MAIN.CPP
