^C:\PROGRAM FILES\MAXON\CINEMA 4D R14 DEMO\PLUGINS\NOXPLUGINC4D\SOURCE\BMFLIP.CPP
C:\PROGRAM FILES\MAXON\CINEMA 4D R14 DEMO\PLUGINS\NOXPLUGINC4D\OBJ\NOXPLUGINC4D\X64_DEBUG\VC110.PDB
^C:\PROGRAM FILES\MAXON\CINEMA 4D R14 DEMO\PLUGINS\NOXPLUGINC4D\SOURCE\MAIN.CPP
C:\PROGRAM FILES\MAXON\CINEMA 4D R14 DEMO\PLUGINS\NOXPLUGINC4D\OBJ\NOXPLUGINC4D\X64_DEBUG\VC110.PDB
