^C:\PROGRAM FILES\MAXON\CINEMA 4D R14 DEMO\PLUGINS\NOXPLUGINC4D\OBJ\NOXPLUGINC4D\X64_RELEASE\OBJ\MAIN.OBJ|C:\PROGRAM FILES\MAXON\CINEMA 4D R14 DEMO\PLUGINS\NOXPLUGINC4D\OBJ\NOXPLUGINC4D\X64_RELEASE\OBJ\NOXEXPORTER.OBJ|C:\PROGRAM FILES\MAXON\CINEMA 4D R14 DEMO\PLUGINS\NOXPLUGINC4D\OBJ\NOXPLUGINC4D\X64_RELEASE\OBJ\RUNNOX.OBJ
C:\PROGRAM FILES\MAXON\CINEMA 4D R14 DEMO\RESOURCE\_API_LIB\_API_X64_RELEASE.LIB
C:\PROGRAM FILES\MICROSOFT SDKS\WINDOWS\V7.1\LIB\X64\KERNEL32.LIB
C:\PROGRAM FILES\MICROSOFT SDKS\WINDOWS\V7.1\LIB\X64\USER32.LIB
C:\PROGRAM FILES\MICROSOFT SDKS\WINDOWS\V7.1\LIB\X64\GDI32.LIB
C:\PROGRAM FILES\MICROSOFT SDKS\WINDOWS\V7.1\LIB\X64\WINSPOOL.LIB
C:\PROGRAM FILES\MICROSOFT SDKS\WINDOWS\V7.1\LIB\X64\COMDLG32.LIB
C:\PROGRAM FILES\MICROSOFT SDKS\WINDOWS\V7.1\LIB\X64\ADVAPI32.LIB
C:\PROGRAM FILES\MICROSOFT SDKS\WINDOWS\V7.1\LIB\X64\SHELL32.LIB
C:\PROGRAM FILES\MICROSOFT SDKS\WINDOWS\V7.1\LIB\X64\OLE32.LIB
C:\PROGRAM FILES\MICROSOFT SDKS\WINDOWS\V7.1\LIB\X64\OLEAUT32.LIB
C:\PROGRAM FILES\MICROSOFT SDKS\WINDOWS\V7.1\LIB\X64\UUID.LIB
C:\PROGRAM FILES\MICROSOFT SDKS\WINDOWS\V7.1\LIB\X64\ODBC32.LIB
C:\PROGRAM FILES\MICROSOFT SDKS\WINDOWS\V7.1\LIB\X64\ODBCCP32.LIB
C:\PROGRAM FILES\MAXON\CINEMA 4D R14 DEMO\PLUGINS\NOXPLUGINC4D\OBJ\NOXPLUGINC4D\X64_RELEASE\OBJ\MAIN.OBJ
C:\PROGRAM FILES\MAXON\CINEMA 4D R14 DEMO\PLUGINS\NOXPLUGINC4D\OBJ\NOXPLUGINC4D\X64_RELEASE\OBJ\NOXEXPORTER.OBJ
C:\PROGRAM FILES\MAXON\CINEMA 4D R14 DEMO\PLUGINS\NOXPLUGINC4D\OBJ\NOXPLUGINC4D\X64_RELEASE\OBJ\RUNNOX.OBJ
C:\WINDOWS\GLOBALIZATION\SORTING\SORTDEFAULT.NLS
C:\PROGRAM FILES (X86)\MICROSOFT VISUAL STUDIO 10.0\VC\BIN\X86_AMD64\C2.DLL
C:\PROGRAM FILES (X86)\MICROSOFT VISUAL STUDIO 10.0\VC\LIB\AMD64\LIBCPMT.LIB
C:\PROGRAM FILES (X86)\MICROSOFT VISUAL STUDIO 10.0\VC\LIB\AMD64\LIBCMT.LIB
C:\PROGRAM FILES (X86)\MICROSOFT VISUAL STUDIO 10.0\VC\LIB\AMD64\OLDNAMES.LIB
C:\WINDOWS\SYSTEM32\TZRES.DLL
C:\PROGRAM FILES (X86)\MICROSOFT VISUAL STUDIO 10.0\VC\BIN\X86_AMD64\1033\LINKUI.DLL
C:\PROGRAM FILES\MAXON\CINEMA 4D R14 DEMO\PLUGINS\NOXPLUGINC4D\OBJ\NOXPLUGINC4D\X64_RELEASE\NOXPLUGINC4D.CDL64.EXP
