^C:\PROGRAM FILES\MAXON\CINEMA 4D R14 DEMO\PLUGINS\NOXPLUGINC4D\OBJ\NOXPLUGINC4D\X64_RELEASE\OBJ\MAIN.OBJ|C:\PROGRAM FILES\MAXON\CINEMA 4D R14 DEMO\PLUGINS\NOXPLUGINC4D\OBJ\NOXPLUGINC4D\X64_RELEASE\OBJ\NOXEXPORTER.OBJ|C:\PROGRAM FILES\MAXON\CINEMA 4D R14 DEMO\PLUGINS\NOXPLUGINC4D\OBJ\NOXPLUGINC4D\X64_RELEASE\OBJ\RUNNOX.OBJ
C:\PROGRAM FILES\MAXON\CINEMA 4D R14 DEMO\PLUGINS\NOXPLUGINC4D\NOXPLUGINC4D.CDL64
C:\PROGRAM FILES\MAXON\CINEMA 4D R14 DEMO\PLUGINS\NOXPLUGINC4D\OBJ\NOXPLUGINC4D_X64_RELEASE.PDB
