^C:\Program Files\MAXON\CINEMA 4D R14 Demo\plugins\NOXpluginC4D\NOXplugin.vcxproj
C:\Program Files\MAXON\CINEMA 4D R14 Demo\plugins\NOXpluginC4D\obj\NOXpluginC4D\x64_Release\NOXpluginC4D.cdl64.lib
C:\Program Files\MAXON\CINEMA 4D R14 Demo\plugins\NOXpluginC4D\obj\NOXpluginC4D\x64_Release\NOXpluginC4D.cdl64.exp
