^C:\USERS\MARCHEWA\DOCUMENTS\VISUAL STUDIO 2012\PROJECTS\NOXPLUGIN\NOXPLUGIN\WIN32\3DSMAX 2009\NOXPLUGIN.RES|C:\USERS\MARCHEWA\DOCUMENTS\VISUAL STUDIO 2012\PROJECTS\NOXPLUGIN\NOXPLUGIN\X86\3DSMAX 2009\DECHEX.OBJ|C:\USERS\MARCHEWA\DOCUMENTS\VISUAL STUDIO 2012\PROJECTS\NOXPLUGIN\NOXPLUGIN\X86\3DSMAX 2009\DLLENTRY.OBJ|C:\USERS\MARCHEWA\DOCUMENTS\VISUAL STUDIO 2012\PROJECTS\NOXPLUGIN\NOXPLUGIN\X86\3DSMAX 2009\LINKRAYTRACER.OBJ|C:\USERS\MARCHEWA\DOCUMENTS\VISUAL STUDIO 2012\PROJECTS\NOXPLUGIN\NOXPLUGIN\X86\3DSMAX 2009\LINKRENDERERCAM.OBJ|C:\USERS\MARCHEWA\DOCUMENTS\VISUAL STUDIO 2012\PROJECTS\NOXPLUGIN\NOXPLUGIN\X86\3DSMAX 2009\LINKRENDERERCAMGETSET.OBJ|C:\USERS\MARCHEWA\DOCUMENTS\VISUAL STUDIO 2012\PROJECTS\NOXPLUGIN\NOXPLUGIN\X86\3DSMAX 2009\LINKRENDERERMAT.OBJ|C:\USERS\MARCHEWA\DOCUMENTS\VISUAL STUDIO 2012\PROJECTS\NOXPLUGIN\NOXPLUGIN\X86\3DSMAX 2009\LINKRENDERERSUN.OBJ|C:\USERS\MARCHEWA\DOCUMENTS\VISUAL STUDIO 2012\PROJECTS\NOXPLUGIN\NOXPLUGIN\X86\3DSMAX 2009\LINKRENDERERSUNGETSET.OBJ|C:\USERS\MARCHEWA\DOCUMENTS\VISUAL STUDIO 2012\PROJECTS\NOXPLUGIN\NOXPLUGIN\X86\3DSMAX 2009\MAXNORMALS.OBJ|C:\USERS\MARCHEWA\DOCUMENTS\VISUAL STUDIO 2012\PROJECTS\NOXPLUGIN\NOXPLUGIN\X86\3DSMAX 2009\NOXBINARYSCENESAVE.OBJ|C:\USERS\MARCHEWA\DOCUMENTS\VISUAL STUDIO 2012\PROJECTS\NOXPLUGIN\NOXPLUGIN\X86\3DSMAX 2009\NOXCAMERA.OBJ|C:\USERS\MARCHEWA\DOCUMENTS\VISUAL STUDIO 2012\PROJECTS\NOXPLUGIN\NOXPLUGIN\X86\3DSMAX 2009\NOXCAMERABASIC.OBJ|C:\USERS\MARCHEWA\DOCUMENTS\VISUAL STUDIO 2012\PROJECTS\NOXPLUGIN\NOXPLUGIN\X86\3DSMAX 2009\NOXCAMERAFOCUSDIST.OBJ|C:\USERS\MARCHEWA\DOCUMENTS\VISUAL STUDIO 2012\PROJECTS\NOXPLUGIN\NOXPLUGIN\X86\3DSMAX 2009\NOXCAMERAGETDATA.OBJ|C:\USERS\MARCHEWA\DOCUMENTS\VISUAL STUDIO 2012\PROJECTS\NOXPLUGIN\NOXPLUGIN\X86\3DSMAX 2009\NOXCAMERALOADSAVE.OBJ|C:\USERS\MARCHEWA\DOCUMENTS\VISUAL STUDIO 2012\PROJECTS\NOXPLUGIN\NOXPLUGIN\X86\3DSMAX 2009\NOXCAMERAMESH.OBJ|C:\USERS\MARCHEWA\DOCUMENTS\VISUAL STUDIO 2012\PROJECTS\NOXPLUGIN\NOXPLUGIN\X86\3DSMAX 2009\NOXCAMERASETDATA.OBJ|C:\USERS\MARCHEWA\DOCUMENTS\VISUAL STUDIO 2012\PROJECTS\NOXPLUGIN\NOXPLUGIN\X86\3DSMAX 2009\NOXCAMERATARGET.OBJ|C:\USERS\MARCHEWA\DOCUMENTS\VISUAL STUDIO 2012\PROJECTS\NOXPLUGIN\NOXPLUGIN\X86\3DSMAX 2009\NOXCAMERAUI.OBJ|C:\USERS\MARCHEWA\DOCUMENTS\VISUAL STUDIO 2012\PROJECTS\NOXPLUGIN\NOXPLUGIN\X86\3DSMAX 2009\NOXEXPORTER.OBJ|C:\USERS\MARCHEWA\DOCUMENTS\VISUAL STUDIO 2012\PROJECTS\NOXPLUGIN\NOXPLUGIN\X86\3DSMAX 2009\NOXMATERIAL.OBJ|C:\USERS\MARCHEWA\DOCUMENTS\VISUAL STUDIO 2012\PROJECTS\NOXPLUGIN\NOXPLUGIN\X86\3DSMAX 2009\NOXMATLOADSAVE.OBJ|C:\USERS\MARCHEWA\DOCUMENTS\VISUAL STUDIO 2012\PROJECTS\NOXPLUGIN\NOXPLUGIN\X86\3DSMAX 2009\NOXMATPARAMDLG.OBJ|C:\USERS\MARCHEWA\DOCUMENTS\VISUAL STUDIO 2012\PROJECTS\NOXPLUGIN\NOXPLUGIN\X86\3DSMAX 2009\NOXRENDERER.OBJ|C:\USERS\MARCHEWA\DOCUMENTS\VISUAL STUDIO 2012\PROJECTS\NOXPLUGIN\NOXPLUGIN\X86\3DSMAX 2009\NOXRENDERERLOADSAVE.OBJ|C:\USERS\MARCHEWA\DOCUMENTS\VISUAL STUDIO 2012\PROJECTS\NOXPLUGIN\NOXPLUGIN\X86\3DSMAX 2009\NOXRENDUI.OBJ|C:\USERS\MARCHEWA\DOCUMENTS\VISUAL STUDIO 2012\PROJECTS\NOXPLUGIN\NOXPLUGIN\X86\3DSMAX 2009\NOXSCENESAVE.OBJ|C:\USERS\MARCHEWA\DOCUMENTS\VISUAL STUDIO 2012\PROJECTS\NOXPLUGIN\NOXPLUGIN\X86\3DSMAX 2009\NOXSUNLIGHT.OBJ|C:\USERS\MARCHEWA\DOCUMENTS\VISUAL STUDIO 2012\PROJECTS\NOXPLUGIN\NOXPLUGIN\X86\3DSMAX 2009\NOXSUNLIGHTUI.OBJ|C:\USERS\MARCHEWA\DOCUMENTS\VISUAL STUDIO 2012\PROJECTS\NOXPLUGIN\NOXPLUGIN\X86\3DSMAX 2009\NOXSUNLOADSAVE.OBJ|C:\USERS\MARCHEWA\DOCUMENTS\VISUAL STUDIO 2012\PROJECTS\NOXPLUGIN\NOXPLUGIN\X86\3DSMAX 2009\NOXSUNMESHES.OBJ|C:\USERS\MARCHEWA\DOCUMENTS\VISUAL STUDIO 2012\PROJECTS\NOXPLUGIN\NOXPLUGIN\X86\3DSMAX 2009\NOXSUNTARGET.OBJ|C:\USERS\MARCHEWA\DOCUMENTS\VISUAL STUDIO 2012\PROJECTS\NOXPLUGIN\NOXPLUGIN\X86\3DSMAX 2009\NOXSUNTARGETUI.OBJ|C:\USERS\MARCHEWA\DOCUMENTS\VISUAL STUDIO 2012\PROJECTS\NOXPLUGIN\NOXPLUGIN\X86\3DSMAX 2009\NOXTARGET.OBJ
C:\USERS\MARCHEWA\DOCUMENTS\VISUAL STUDIO 2012\PROJECTS\EVERYTHING DLL\WIN32\RELEASE\EVERYTHINGDLL32.LIB
C:\PROGRAM FILES (X86)\MICROSOFT SDKS\WINDOWS\V7.1A\LIB\GDIPLUS.LIB
C:\PROGRAM FILES (X86)\MICROSOFT SDKS\WINDOWS\V7.1A\LIB\ODBC32.LIB
C:\PROGRAM FILES (X86)\MICROSOFT SDKS\WINDOWS\V7.1A\LIB\ODBCCP32.LIB
C:\PROGRAM FILES (X86)\MICROSOFT SDKS\WINDOWS\V7.1A\LIB\COMCTL32.LIB
C:\PROGRAM FILES (X86)\AUTODESK\3DS MAX 2009 SDK\MAXSDK\LIB\BMM.LIB
C:\PROGRAM FILES (X86)\AUTODESK\3DS MAX 2009 SDK\MAXSDK\LIB\CORE.LIB
C:\PROGRAM FILES (X86)\AUTODESK\3DS MAX 2009 SDK\MAXSDK\LIB\GEOM.LIB
C:\PROGRAM FILES (X86)\AUTODESK\3DS MAX 2009 SDK\MAXSDK\LIB\GFX.LIB
C:\PROGRAM FILES (X86)\AUTODESK\3DS MAX 2009 SDK\MAXSDK\LIB\MESH.LIB
C:\PROGRAM FILES (X86)\AUTODESK\3DS MAX 2009 SDK\MAXSDK\LIB\MAXUTIL.LIB
C:\PROGRAM FILES (X86)\AUTODESK\3DS MAX 2009 SDK\MAXSDK\LIB\MAXSCRPT.LIB
C:\PROGRAM FILES (X86)\AUTODESK\3DS MAX 2009 SDK\MAXSDK\LIB\MANIPSYS.LIB
C:\PROGRAM FILES (X86)\AUTODESK\3DS MAX 2009 SDK\MAXSDK\LIB\PARAMBLK2.LIB
C:\PROGRAM FILES (X86)\MICROSOFT SDKS\WINDOWS\V7.1A\LIB\KERNEL32.LIB
C:\PROGRAM FILES (X86)\MICROSOFT SDKS\WINDOWS\V7.1A\LIB\USER32.LIB
C:\PROGRAM FILES (X86)\MICROSOFT SDKS\WINDOWS\V7.1A\LIB\GDI32.LIB
C:\PROGRAM FILES (X86)\MICROSOFT SDKS\WINDOWS\V7.1A\LIB\WINSPOOL.LIB
C:\PROGRAM FILES (X86)\MICROSOFT SDKS\WINDOWS\V7.1A\LIB\COMDLG32.LIB
C:\PROGRAM FILES (X86)\MICROSOFT SDKS\WINDOWS\V7.1A\LIB\ADVAPI32.LIB
C:\PROGRAM FILES (X86)\MICROSOFT SDKS\WINDOWS\V7.1A\LIB\SHELL32.LIB
C:\PROGRAM FILES (X86)\MICROSOFT SDKS\WINDOWS\V7.1A\LIB\OLE32.LIB
C:\PROGRAM FILES (X86)\MICROSOFT SDKS\WINDOWS\V7.1A\LIB\OLEAUT32.LIB
C:\PROGRAM FILES (X86)\MICROSOFT SDKS\WINDOWS\V7.1A\LIB\UUID.LIB
C:\PROGRAM FILES (X86)\MICROSOFT VISUAL STUDIO 11.0\VC\LIB\DELAYIMP.LIB
C:\USERS\MARCHEWA\DOCUMENTS\VISUAL STUDIO 2012\PROJECTS\NOXPLUGIN\NOXPLUGIN\WIN32\3DSMAX 2009\NOXPLUGIN.RES
C:\USERS\MARCHEWA\DOCUMENTS\VISUAL STUDIO 2012\PROJECTS\NOXPLUGIN\NOXPLUGIN\X86\3DSMAX 2009\DLLENTRY.OBJ
C:\USERS\MARCHEWA\DOCUMENTS\VISUAL STUDIO 2012\PROJECTS\NOXPLUGIN\NOXPLUGIN\X86\3DSMAX 2009\LINKRAYTRACER.OBJ
C:\USERS\MARCHEWA\DOCUMENTS\VISUAL STUDIO 2012\PROJECTS\NOXPLUGIN\NOXPLUGIN\X86\3DSMAX 2009\NOXRENDERER.OBJ
C:\USERS\MARCHEWA\DOCUMENTS\VISUAL STUDIO 2012\PROJECTS\NOXPLUGIN\NOXPLUGIN\X86\3DSMAX 2009\NOXRENDERERLOADSAVE.OBJ
C:\USERS\MARCHEWA\DOCUMENTS\VISUAL STUDIO 2012\PROJECTS\NOXPLUGIN\NOXPLUGIN\X86\3DSMAX 2009\NOXRENDUI.OBJ
C:\USERS\MARCHEWA\DOCUMENTS\VISUAL STUDIO 2012\PROJECTS\NOXPLUGIN\NOXPLUGIN\X86\3DSMAX 2009\LINKRENDERERCAM.OBJ
C:\USERS\MARCHEWA\DOCUMENTS\VISUAL STUDIO 2012\PROJECTS\NOXPLUGIN\NOXPLUGIN\X86\3DSMAX 2009\LINKRENDERERCAMGETSET.OBJ
C:\USERS\MARCHEWA\DOCUMENTS\VISUAL STUDIO 2012\PROJECTS\NOXPLUGIN\NOXPLUGIN\X86\3DSMAX 2009\NOXCAMERA.OBJ
C:\USERS\MARCHEWA\DOCUMENTS\VISUAL STUDIO 2012\PROJECTS\NOXPLUGIN\NOXPLUGIN\X86\3DSMAX 2009\NOXCAMERABASIC.OBJ
C:\USERS\MARCHEWA\DOCUMENTS\VISUAL STUDIO 2012\PROJECTS\NOXPLUGIN\NOXPLUGIN\X86\3DSMAX 2009\NOXCAMERAFOCUSDIST.OBJ
C:\USERS\MARCHEWA\DOCUMENTS\VISUAL STUDIO 2012\PROJECTS\NOXPLUGIN\NOXPLUGIN\X86\3DSMAX 2009\NOXCAMERAGETDATA.OBJ
C:\USERS\MARCHEWA\DOCUMENTS\VISUAL STUDIO 2012\PROJECTS\NOXPLUGIN\NOXPLUGIN\X86\3DSMAX 2009\NOXCAMERALOADSAVE.OBJ
C:\USERS\MARCHEWA\DOCUMENTS\VISUAL STUDIO 2012\PROJECTS\NOXPLUGIN\NOXPLUGIN\X86\3DSMAX 2009\NOXCAMERAMESH.OBJ
C:\USERS\MARCHEWA\DOCUMENTS\VISUAL STUDIO 2012\PROJECTS\NOXPLUGIN\NOXPLUGIN\X86\3DSMAX 2009\NOXCAMERASETDATA.OBJ
C:\USERS\MARCHEWA\DOCUMENTS\VISUAL STUDIO 2012\PROJECTS\NOXPLUGIN\NOXPLUGIN\X86\3DSMAX 2009\NOXCAMERATARGET.OBJ
C:\USERS\MARCHEWA\DOCUMENTS\VISUAL STUDIO 2012\PROJECTS\NOXPLUGIN\NOXPLUGIN\X86\3DSMAX 2009\NOXCAMERAUI.OBJ
C:\USERS\MARCHEWA\DOCUMENTS\VISUAL STUDIO 2012\PROJECTS\NOXPLUGIN\NOXPLUGIN\X86\3DSMAX 2009\NOXTARGET.OBJ
C:\USERS\MARCHEWA\DOCUMENTS\VISUAL STUDIO 2012\PROJECTS\NOXPLUGIN\NOXPLUGIN\X86\3DSMAX 2009\LINKRENDERERMAT.OBJ
C:\USERS\MARCHEWA\DOCUMENTS\VISUAL STUDIO 2012\PROJECTS\NOXPLUGIN\NOXPLUGIN\X86\3DSMAX 2009\NOXMATERIAL.OBJ
C:\USERS\MARCHEWA\DOCUMENTS\VISUAL STUDIO 2012\PROJECTS\NOXPLUGIN\NOXPLUGIN\X86\3DSMAX 2009\NOXMATLOADSAVE.OBJ
C:\USERS\MARCHEWA\DOCUMENTS\VISUAL STUDIO 2012\PROJECTS\NOXPLUGIN\NOXPLUGIN\X86\3DSMAX 2009\NOXMATPARAMDLG.OBJ
C:\USERS\MARCHEWA\DOCUMENTS\VISUAL STUDIO 2012\PROJECTS\NOXPLUGIN\NOXPLUGIN\X86\3DSMAX 2009\DECHEX.OBJ
C:\USERS\MARCHEWA\DOCUMENTS\VISUAL STUDIO 2012\PROJECTS\NOXPLUGIN\NOXPLUGIN\X86\3DSMAX 2009\MAXNORMALS.OBJ
C:\USERS\MARCHEWA\DOCUMENTS\VISUAL STUDIO 2012\PROJECTS\NOXPLUGIN\NOXPLUGIN\X86\3DSMAX 2009\NOXBINARYSCENESAVE.OBJ
C:\USERS\MARCHEWA\DOCUMENTS\VISUAL STUDIO 2012\PROJECTS\NOXPLUGIN\NOXPLUGIN\X86\3DSMAX 2009\NOXEXPORTER.OBJ
C:\USERS\MARCHEWA\DOCUMENTS\VISUAL STUDIO 2012\PROJECTS\NOXPLUGIN\NOXPLUGIN\X86\3DSMAX 2009\NOXSCENESAVE.OBJ
C:\USERS\MARCHEWA\DOCUMENTS\VISUAL STUDIO 2012\PROJECTS\NOXPLUGIN\NOXPLUGIN\X86\3DSMAX 2009\LINKRENDERERSUN.OBJ
C:\USERS\MARCHEWA\DOCUMENTS\VISUAL STUDIO 2012\PROJECTS\NOXPLUGIN\NOXPLUGIN\X86\3DSMAX 2009\LINKRENDERERSUNGETSET.OBJ
C:\USERS\MARCHEWA\DOCUMENTS\VISUAL STUDIO 2012\PROJECTS\NOXPLUGIN\NOXPLUGIN\X86\3DSMAX 2009\NOXSUNLIGHT.OBJ
C:\USERS\MARCHEWA\DOCUMENTS\VISUAL STUDIO 2012\PROJECTS\NOXPLUGIN\NOXPLUGIN\X86\3DSMAX 2009\NOXSUNLIGHTUI.OBJ
C:\USERS\MARCHEWA\DOCUMENTS\VISUAL STUDIO 2012\PROJECTS\NOXPLUGIN\NOXPLUGIN\X86\3DSMAX 2009\NOXSUNLOADSAVE.OBJ
C:\USERS\MARCHEWA\DOCUMENTS\VISUAL STUDIO 2012\PROJECTS\NOXPLUGIN\NOXPLUGIN\X86\3DSMAX 2009\NOXSUNMESHES.OBJ
C:\USERS\MARCHEWA\DOCUMENTS\VISUAL STUDIO 2012\PROJECTS\NOXPLUGIN\NOXPLUGIN\X86\3DSMAX 2009\NOXSUNTARGET.OBJ
C:\USERS\MARCHEWA\DOCUMENTS\VISUAL STUDIO 2012\PROJECTS\NOXPLUGIN\NOXPLUGIN\X86\3DSMAX 2009\NOXSUNTARGETUI.OBJ
C:\WINDOWS\GLOBALIZATION\SORTING\SORTDEFAULT.NLS
C:\PROGRAM FILES (X86)\MICROSOFT VISUAL STUDIO 11.0\VC\LIB\MSVCPRT.LIB
C:\PROGRAM FILES (X86)\MICROSOFT VISUAL STUDIO 11.0\VC\LIB\MSVCRT.LIB
C:\PROGRAM FILES (X86)\MICROSOFT VISUAL STUDIO 11.0\VC\LIB\OLDNAMES.LIB
C:\PROGRAM FILES (X86)\MICROSOFT VISUAL STUDIO 8\VC\LIBXML2\X86\LIB\LIBXML2.LIB
C:\USERS\MARCHEWA\DOCUMENTS\VISUAL STUDIO 2012\PROJECTS\NOXPLUGIN\NOXPLUGIN\NOXPLUGIN.DEF
C:\WINDOWS\SYSTEM32\RSAENH.DLL
C:\WINDOWS\SYSTEM32\TZRES.DLL
C:\PROGRAM FILES (X86)\MICROSOFT VISUAL STUDIO 11.0\VC\BIN\1033\LINKUI.DLL
C:\PROGRAM FILES (X86)\MICROSOFT SDKS\WINDOWS\V7.1A\BIN\RC.EXE
C:\PROGRAM FILES (X86)\MICROSOFT VISUAL STUDIO 11.0\VC\BIN\CVTRES.EXE
