^C:\USERS\MARCHEWA\DOCUMENTS\VISUAL STUDIO 2012\PROJECTS\NOXPLUGIN\NOXPLUGIN\DLLENTRY.CPP
/c /I.\midl\x64 /I"C:\Program Files (x86)\Autodesk\3ds Max 2013 SDK\maxsdk\include" /I"C:\Program Files (x86)\Microsoft DirectX SDK (June 2010)\Include" /I"C:\Program Files (x86)\Microsoft Visual Studio 8\VC\libxml2\x64\include" /Zi /nologo /W3 /WX- /O2 /Oi /Ot /D _SECURE_SCL=0 /D WIN32 /D NDEBUG /D _WINDOWS /D _USRDLL /D WIN64 /D _CRT_SECURE_NO_DEPRECATE /D _CRT_NONSTDC_NO_DEPRECATE /D _SCL_SECURE_NO_DEPRECATE /D ISOLATION_AWARE_ENABLED=1 /D NITROUS_SHIT /D ISMAX2013 /D _USING_V110_SDK71_ /D _WINDLL /D _UNICODE /D UNICODE /GF- /Gm- /EHa /MD /GS /Gy /fp:precise /fp:except- /Zc:wchar_t /Zc:forScope /GR /Fo"X64\3DSMAX 2013\\" /Fd".\X64\NOXPLUGIN.DLR.PDB" /Gd /TP /FC /LD   C:\USERS\MARCHEWA\DOCUMENTS\VISUAL STUDIO 2012\PROJECTS\NOXPLUGIN\NOXPLUGIN\DLLENTRY.CPP
^C:\USERS\MARCHEWA\DOCUMENTS\VISUAL STUDIO 2012\PROJECTS\NOXPLUGIN\NOXPLUGIN\LINKRAYTRACER.CPP
/c /I.\midl\x64 /I"C:\Program Files (x86)\Autodesk\3ds Max 2013 SDK\maxsdk\include" /I"C:\Program Files (x86)\Microsoft DirectX SDK (June 2010)\Include" /I"C:\Program Files (x86)\Microsoft Visual Studio 8\VC\libxml2\x64\include" /Zi /nologo /W3 /WX- /O2 /Oi /Ot /D _SECURE_SCL=0 /D WIN32 /D NDEBUG /D _WINDOWS /D _USRDLL /D WIN64 /D _CRT_SECURE_NO_DEPRECATE /D _CRT_NONSTDC_NO_DEPRECATE /D _SCL_SECURE_NO_DEPRECATE /D ISOLATION_AWARE_ENABLED=1 /D NITROUS_SHIT /D ISMAX2013 /D _USING_V110_SDK71_ /D _WINDLL /D _UNICODE /D UNICODE /GF- /Gm- /EHa /MD /GS /Gy /fp:precise /fp:except- /Zc:wchar_t /Zc:forScope /GR /Fo"X64\3DSMAX 2013\\" /Fd".\X64\NOXPLUGIN.DLR.PDB" /Gd /TP /FC /LD   C:\USERS\MARCHEWA\DOCUMENTS\VISUAL STUDIO 2012\PROJECTS\NOXPLUGIN\NOXPLUGIN\LINKRAYTRACER.CPP
^C:\USERS\MARCHEWA\DOCUMENTS\VISUAL STUDIO 2012\PROJECTS\NOXPLUGIN\NOXPLUGIN\NOXRENDERER.CPP
/c /I.\midl\x64 /I"C:\Program Files (x86)\Autodesk\3ds Max 2013 SDK\maxsdk\include" /I"C:\Program Files (x86)\Microsoft DirectX SDK (June 2010)\Include" /I"C:\Program Files (x86)\Microsoft Visual Studio 8\VC\libxml2\x64\include" /Zi /nologo /W3 /WX- /O2 /Oi /Ot /D _SECURE_SCL=0 /D WIN32 /D NDEBUG /D _WINDOWS /D _USRDLL /D WIN64 /D _CRT_SECURE_NO_DEPRECATE /D _CRT_NONSTDC_NO_DEPRECATE /D _SCL_SECURE_NO_DEPRECATE /D ISOLATION_AWARE_ENABLED=1 /D NITROUS_SHIT /D ISMAX2013 /D _USING_V110_SDK71_ /D _WINDLL /D _UNICODE /D UNICODE /GF- /Gm- /EHa /MD /GS /Gy /fp:precise /fp:except- /Zc:wchar_t /Zc:forScope /GR /Fo"X64\3DSMAX 2013\\" /Fd".\X64\NOXPLUGIN.DLR.PDB" /Gd /TP /FC /LD   C:\USERS\MARCHEWA\DOCUMENTS\VISUAL STUDIO 2012\PROJECTS\NOXPLUGIN\NOXPLUGIN\NOXRENDERER.CPP
^C:\USERS\MARCHEWA\DOCUMENTS\VISUAL STUDIO 2012\PROJECTS\NOXPLUGIN\NOXPLUGIN\NOXRENDERERLOADSAVE.CPP
/c /I.\midl\x64 /I"C:\Program Files (x86)\Autodesk\3ds Max 2013 SDK\maxsdk\include" /I"C:\Program Files (x86)\Microsoft DirectX SDK (June 2010)\Include" /I"C:\Program Files (x86)\Microsoft Visual Studio 8\VC\libxml2\x64\include" /Zi /nologo /W3 /WX- /O2 /Oi /Ot /D _SECURE_SCL=0 /D WIN32 /D NDEBUG /D _WINDOWS /D _USRDLL /D WIN64 /D _CRT_SECURE_NO_DEPRECATE /D _CRT_NONSTDC_NO_DEPRECATE /D _SCL_SECURE_NO_DEPRECATE /D ISOLATION_AWARE_ENABLED=1 /D NITROUS_SHIT /D ISMAX2013 /D _USING_V110_SDK71_ /D _WINDLL /D _UNICODE /D UNICODE /GF- /Gm- /EHa /MD /GS /Gy /fp:precise /fp:except- /Zc:wchar_t /Zc:forScope /GR /Fo"X64\3DSMAX 2013\\" /Fd".\X64\NOXPLUGIN.DLR.PDB" /Gd /TP /FC /LD   C:\USERS\MARCHEWA\DOCUMENTS\VISUAL STUDIO 2012\PROJECTS\NOXPLUGIN\NOXPLUGIN\NOXRENDERERLOADSAVE.CPP
^C:\USERS\MARCHEWA\DOCUMENTS\VISUAL STUDIO 2012\PROJECTS\NOXPLUGIN\NOXPLUGIN\NOXRENDUI.CPP
/c /I.\midl\x64 /I"C:\Program Files (x86)\Autodesk\3ds Max 2013 SDK\maxsdk\include" /I"C:\Program Files (x86)\Microsoft DirectX SDK (June 2010)\Include" /I"C:\Program Files (x86)\Microsoft Visual Studio 8\VC\libxml2\x64\include" /Zi /nologo /W3 /WX- /O2 /Oi /Ot /D _SECURE_SCL=0 /D WIN32 /D NDEBUG /D _WINDOWS /D _USRDLL /D WIN64 /D _CRT_SECURE_NO_DEPRECATE /D _CRT_NONSTDC_NO_DEPRECATE /D _SCL_SECURE_NO_DEPRECATE /D ISOLATION_AWARE_ENABLED=1 /D NITROUS_SHIT /D ISMAX2013 /D _USING_V110_SDK71_ /D _WINDLL /D _UNICODE /D UNICODE /GF- /Gm- /EHa /MD /GS /Gy /fp:precise /fp:except- /Zc:wchar_t /Zc:forScope /GR /Fo"X64\3DSMAX 2013\\" /Fd".\X64\NOXPLUGIN.DLR.PDB" /Gd /TP /FC /LD   C:\USERS\MARCHEWA\DOCUMENTS\VISUAL STUDIO 2012\PROJECTS\NOXPLUGIN\NOXPLUGIN\NOXRENDUI.CPP
^C:\USERS\MARCHEWA\DOCUMENTS\VISUAL STUDIO 2012\PROJECTS\NOXPLUGIN\NOXPLUGIN\LINKRENDERERCAM.CPP
/c /I.\midl\x64 /I"C:\Program Files (x86)\Autodesk\3ds Max 2013 SDK\maxsdk\include" /I"C:\Program Files (x86)\Microsoft DirectX SDK (June 2010)\Include" /I"C:\Program Files (x86)\Microsoft Visual Studio 8\VC\libxml2\x64\include" /Zi /nologo /W3 /WX- /O2 /Oi /Ot /D _SECURE_SCL=0 /D WIN32 /D NDEBUG /D _WINDOWS /D _USRDLL /D WIN64 /D _CRT_SECURE_NO_DEPRECATE /D _CRT_NONSTDC_NO_DEPRECATE /D _SCL_SECURE_NO_DEPRECATE /D ISOLATION_AWARE_ENABLED=1 /D NITROUS_SHIT /D ISMAX2013 /D _USING_V110_SDK71_ /D _WINDLL /D _UNICODE /D UNICODE /GF- /Gm- /EHa /MD /GS /Gy /fp:precise /fp:except- /Zc:wchar_t /Zc:forScope /GR /Fo"X64\3DSMAX 2013\\" /Fd".\X64\NOXPLUGIN.DLR.PDB" /Gd /TP /FC /LD   C:\USERS\MARCHEWA\DOCUMENTS\VISUAL STUDIO 2012\PROJECTS\NOXPLUGIN\NOXPLUGIN\LINKRENDERERCAM.CPP
^C:\USERS\MARCHEWA\DOCUMENTS\VISUAL STUDIO 2012\PROJECTS\NOXPLUGIN\NOXPLUGIN\LINKRENDERERCAMGETSET.CPP
/c /I.\midl\x64 /I"C:\Program Files (x86)\Autodesk\3ds Max 2013 SDK\maxsdk\include" /I"C:\Program Files (x86)\Microsoft DirectX SDK (June 2010)\Include" /I"C:\Program Files (x86)\Microsoft Visual Studio 8\VC\libxml2\x64\include" /Zi /nologo /W3 /WX- /O2 /Oi /Ot /D _SECURE_SCL=0 /D WIN32 /D NDEBUG /D _WINDOWS /D _USRDLL /D WIN64 /D _CRT_SECURE_NO_DEPRECATE /D _CRT_NONSTDC_NO_DEPRECATE /D _SCL_SECURE_NO_DEPRECATE /D ISOLATION_AWARE_ENABLED=1 /D NITROUS_SHIT /D ISMAX2013 /D _USING_V110_SDK71_ /D _WINDLL /D _UNICODE /D UNICODE /GF- /Gm- /EHa /MD /GS /Gy /fp:precise /fp:except- /Zc:wchar_t /Zc:forScope /GR /Fo"X64\3DSMAX 2013\\" /Fd".\X64\NOXPLUGIN.DLR.PDB" /Gd /TP /FC /LD   C:\USERS\MARCHEWA\DOCUMENTS\VISUAL STUDIO 2012\PROJECTS\NOXPLUGIN\NOXPLUGIN\LINKRENDERERCAMGETSET.CPP
^C:\USERS\MARCHEWA\DOCUMENTS\VISUAL STUDIO 2012\PROJECTS\NOXPLUGIN\NOXPLUGIN\NOXCAMERA.CPP
/c /I.\midl\x64 /I"C:\Program Files (x86)\Autodesk\3ds Max 2013 SDK\maxsdk\include" /I"C:\Program Files (x86)\Microsoft DirectX SDK (June 2010)\Include" /I"C:\Program Files (x86)\Microsoft Visual Studio 8\VC\libxml2\x64\include" /Zi /nologo /W3 /WX- /O2 /Oi /Ot /D _SECURE_SCL=0 /D WIN32 /D NDEBUG /D _WINDOWS /D _USRDLL /D WIN64 /D _CRT_SECURE_NO_DEPRECATE /D _CRT_NONSTDC_NO_DEPRECATE /D _SCL_SECURE_NO_DEPRECATE /D ISOLATION_AWARE_ENABLED=1 /D NITROUS_SHIT /D ISMAX2013 /D _USING_V110_SDK71_ /D _WINDLL /D _UNICODE /D UNICODE /GF- /Gm- /EHa /MD /GS /Gy /fp:precise /fp:except- /Zc:wchar_t /Zc:forScope /GR /Fo"X64\3DSMAX 2013\\" /Fd".\X64\NOXPLUGIN.DLR.PDB" /Gd /TP /FC /LD   C:\USERS\MARCHEWA\DOCUMENTS\VISUAL STUDIO 2012\PROJECTS\NOXPLUGIN\NOXPLUGIN\NOXCAMERA.CPP
^C:\USERS\MARCHEWA\DOCUMENTS\VISUAL STUDIO 2012\PROJECTS\NOXPLUGIN\NOXPLUGIN\NOXCAMERABASIC.CPP
/c /I.\midl\x64 /I"C:\Program Files (x86)\Autodesk\3ds Max 2013 SDK\maxsdk\include" /I"C:\Program Files (x86)\Microsoft DirectX SDK (June 2010)\Include" /I"C:\Program Files (x86)\Microsoft Visual Studio 8\VC\libxml2\x64\include" /Zi /nologo /W3 /WX- /O2 /Oi /Ot /D _SECURE_SCL=0 /D WIN32 /D NDEBUG /D _WINDOWS /D _USRDLL /D WIN64 /D _CRT_SECURE_NO_DEPRECATE /D _CRT_NONSTDC_NO_DEPRECATE /D _SCL_SECURE_NO_DEPRECATE /D ISOLATION_AWARE_ENABLED=1 /D NITROUS_SHIT /D ISMAX2013 /D _USING_V110_SDK71_ /D _WINDLL /D _UNICODE /D UNICODE /GF- /Gm- /EHa /MD /GS /Gy /fp:precise /fp:except- /Zc:wchar_t /Zc:forScope /GR /Fo"X64\3DSMAX 2013\\" /Fd".\X64\NOXPLUGIN.DLR.PDB" /Gd /TP /FC /LD   C:\USERS\MARCHEWA\DOCUMENTS\VISUAL STUDIO 2012\PROJECTS\NOXPLUGIN\NOXPLUGIN\NOXCAMERABASIC.CPP
^C:\USERS\MARCHEWA\DOCUMENTS\VISUAL STUDIO 2012\PROJECTS\NOXPLUGIN\NOXPLUGIN\NOXCAMERAFOCUSDIST.CPP
/c /I.\midl\x64 /I"C:\Program Files (x86)\Autodesk\3ds Max 2013 SDK\maxsdk\include" /I"C:\Program Files (x86)\Microsoft DirectX SDK (June 2010)\Include" /I"C:\Program Files (x86)\Microsoft Visual Studio 8\VC\libxml2\x64\include" /Zi /nologo /W3 /WX- /O2 /Oi /Ot /D _SECURE_SCL=0 /D WIN32 /D NDEBUG /D _WINDOWS /D _USRDLL /D WIN64 /D _CRT_SECURE_NO_DEPRECATE /D _CRT_NONSTDC_NO_DEPRECATE /D _SCL_SECURE_NO_DEPRECATE /D ISOLATION_AWARE_ENABLED=1 /D NITROUS_SHIT /D ISMAX2013 /D _USING_V110_SDK71_ /D _WINDLL /D _UNICODE /D UNICODE /GF- /Gm- /EHa /MD /GS /Gy /fp:precise /fp:except- /Zc:wchar_t /Zc:forScope /GR /Fo"X64\3DSMAX 2013\\" /Fd".\X64\NOXPLUGIN.DLR.PDB" /Gd /TP /FC /LD   C:\USERS\MARCHEWA\DOCUMENTS\VISUAL STUDIO 2012\PROJECTS\NOXPLUGIN\NOXPLUGIN\NOXCAMERAFOCUSDIST.CPP
^C:\USERS\MARCHEWA\DOCUMENTS\VISUAL STUDIO 2012\PROJECTS\NOXPLUGIN\NOXPLUGIN\NOXCAMERAGETDATA.CPP
/c /I.\midl\x64 /I"C:\Program Files (x86)\Autodesk\3ds Max 2013 SDK\maxsdk\include" /I"C:\Program Files (x86)\Microsoft DirectX SDK (June 2010)\Include" /I"C:\Program Files (x86)\Microsoft Visual Studio 8\VC\libxml2\x64\include" /Zi /nologo /W3 /WX- /O2 /Oi /Ot /D _SECURE_SCL=0 /D WIN32 /D NDEBUG /D _WINDOWS /D _USRDLL /D WIN64 /D _CRT_SECURE_NO_DEPRECATE /D _CRT_NONSTDC_NO_DEPRECATE /D _SCL_SECURE_NO_DEPRECATE /D ISOLATION_AWARE_ENABLED=1 /D NITROUS_SHIT /D ISMAX2013 /D _USING_V110_SDK71_ /D _WINDLL /D _UNICODE /D UNICODE /GF- /Gm- /EHa /MD /GS /Gy /fp:precise /fp:except- /Zc:wchar_t /Zc:forScope /GR /Fo"X64\3DSMAX 2013\\" /Fd".\X64\NOXPLUGIN.DLR.PDB" /Gd /TP /FC /LD   C:\USERS\MARCHEWA\DOCUMENTS\VISUAL STUDIO 2012\PROJECTS\NOXPLUGIN\NOXPLUGIN\NOXCAMERAGETDATA.CPP
^C:\USERS\MARCHEWA\DOCUMENTS\VISUAL STUDIO 2012\PROJECTS\NOXPLUGIN\NOXPLUGIN\NOXCAMERALOADSAVE.CPP
/c /I.\midl\x64 /I"C:\Program Files (x86)\Autodesk\3ds Max 2013 SDK\maxsdk\include" /I"C:\Program Files (x86)\Microsoft DirectX SDK (June 2010)\Include" /I"C:\Program Files (x86)\Microsoft Visual Studio 8\VC\libxml2\x64\include" /Zi /nologo /W3 /WX- /O2 /Oi /Ot /D _SECURE_SCL=0 /D WIN32 /D NDEBUG /D _WINDOWS /D _USRDLL /D WIN64 /D _CRT_SECURE_NO_DEPRECATE /D _CRT_NONSTDC_NO_DEPRECATE /D _SCL_SECURE_NO_DEPRECATE /D ISOLATION_AWARE_ENABLED=1 /D NITROUS_SHIT /D ISMAX2013 /D _USING_V110_SDK71_ /D _WINDLL /D _UNICODE /D UNICODE /GF- /Gm- /EHa /MD /GS /Gy /fp:precise /fp:except- /Zc:wchar_t /Zc:forScope /GR /Fo"X64\3DSMAX 2013\\" /Fd".\X64\NOXPLUGIN.DLR.PDB" /Gd /TP /FC /LD   C:\USERS\MARCHEWA\DOCUMENTS\VISUAL STUDIO 2012\PROJECTS\NOXPLUGIN\NOXPLUGIN\NOXCAMERALOADSAVE.CPP
^C:\USERS\MARCHEWA\DOCUMENTS\VISUAL STUDIO 2012\PROJECTS\NOXPLUGIN\NOXPLUGIN\NOXCAMERAMESH.CPP
/c /I.\midl\x64 /I"C:\Program Files (x86)\Autodesk\3ds Max 2013 SDK\maxsdk\include" /I"C:\Program Files (x86)\Microsoft DirectX SDK (June 2010)\Include" /I"C:\Program Files (x86)\Microsoft Visual Studio 8\VC\libxml2\x64\include" /Zi /nologo /W3 /WX- /O2 /Oi /Ot /D _SECURE_SCL=0 /D WIN32 /D NDEBUG /D _WINDOWS /D _USRDLL /D WIN64 /D _CRT_SECURE_NO_DEPRECATE /D _CRT_NONSTDC_NO_DEPRECATE /D _SCL_SECURE_NO_DEPRECATE /D ISOLATION_AWARE_ENABLED=1 /D NITROUS_SHIT /D ISMAX2013 /D _USING_V110_SDK71_ /D _WINDLL /D _UNICODE /D UNICODE /GF- /Gm- /EHa /MD /GS /Gy /fp:precise /fp:except- /Zc:wchar_t /Zc:forScope /GR /Fo"X64\3DSMAX 2013\\" /Fd".\X64\NOXPLUGIN.DLR.PDB" /Gd /TP /FC /LD   C:\USERS\MARCHEWA\DOCUMENTS\VISUAL STUDIO 2012\PROJECTS\NOXPLUGIN\NOXPLUGIN\NOXCAMERAMESH.CPP
^C:\USERS\MARCHEWA\DOCUMENTS\VISUAL STUDIO 2012\PROJECTS\NOXPLUGIN\NOXPLUGIN\NOXCAMERASETDATA.CPP
/c /I.\midl\x64 /I"C:\Program Files (x86)\Autodesk\3ds Max 2013 SDK\maxsdk\include" /I"C:\Program Files (x86)\Microsoft DirectX SDK (June 2010)\Include" /I"C:\Program Files (x86)\Microsoft Visual Studio 8\VC\libxml2\x64\include" /Zi /nologo /W3 /WX- /O2 /Oi /Ot /D _SECURE_SCL=0 /D WIN32 /D NDEBUG /D _WINDOWS /D _USRDLL /D WIN64 /D _CRT_SECURE_NO_DEPRECATE /D _CRT_NONSTDC_NO_DEPRECATE /D _SCL_SECURE_NO_DEPRECATE /D ISOLATION_AWARE_ENABLED=1 /D NITROUS_SHIT /D ISMAX2013 /D _USING_V110_SDK71_ /D _WINDLL /D _UNICODE /D UNICODE /GF- /Gm- /EHa /MD /GS /Gy /fp:precise /fp:except- /Zc:wchar_t /Zc:forScope /GR /Fo"X64\3DSMAX 2013\\" /Fd".\X64\NOXPLUGIN.DLR.PDB" /Gd /TP /FC /LD   C:\USERS\MARCHEWA\DOCUMENTS\VISUAL STUDIO 2012\PROJECTS\NOXPLUGIN\NOXPLUGIN\NOXCAMERASETDATA.CPP
^C:\USERS\MARCHEWA\DOCUMENTS\VISUAL STUDIO 2012\PROJECTS\NOXPLUGIN\NOXPLUGIN\NOXCAMERATARGET.CPP
/c /I.\midl\x64 /I"C:\Program Files (x86)\Autodesk\3ds Max 2013 SDK\maxsdk\include" /I"C:\Program Files (x86)\Microsoft DirectX SDK (June 2010)\Include" /I"C:\Program Files (x86)\Microsoft Visual Studio 8\VC\libxml2\x64\include" /Zi /nologo /W3 /WX- /O2 /Oi /Ot /D _SECURE_SCL=0 /D WIN32 /D NDEBUG /D _WINDOWS /D _USRDLL /D WIN64 /D _CRT_SECURE_NO_DEPRECATE /D _CRT_NONSTDC_NO_DEPRECATE /D _SCL_SECURE_NO_DEPRECATE /D ISOLATION_AWARE_ENABLED=1 /D NITROUS_SHIT /D ISMAX2013 /D _USING_V110_SDK71_ /D _WINDLL /D _UNICODE /D UNICODE /GF- /Gm- /EHa /MD /GS /Gy /fp:precise /fp:except- /Zc:wchar_t /Zc:forScope /GR /Fo"X64\3DSMAX 2013\\" /Fd".\X64\NOXPLUGIN.DLR.PDB" /Gd /TP /FC /LD   C:\USERS\MARCHEWA\DOCUMENTS\VISUAL STUDIO 2012\PROJECTS\NOXPLUGIN\NOXPLUGIN\NOXCAMERATARGET.CPP
^C:\USERS\MARCHEWA\DOCUMENTS\VISUAL STUDIO 2012\PROJECTS\NOXPLUGIN\NOXPLUGIN\NOXCAMERAUI.CPP
/c /I.\midl\x64 /I"C:\Program Files (x86)\Autodesk\3ds Max 2013 SDK\maxsdk\include" /I"C:\Program Files (x86)\Microsoft DirectX SDK (June 2010)\Include" /I"C:\Program Files (x86)\Microsoft Visual Studio 8\VC\libxml2\x64\include" /Zi /nologo /W3 /WX- /O2 /Oi /Ot /D _SECURE_SCL=0 /D WIN32 /D NDEBUG /D _WINDOWS /D _USRDLL /D WIN64 /D _CRT_SECURE_NO_DEPRECATE /D _CRT_NONSTDC_NO_DEPRECATE /D _SCL_SECURE_NO_DEPRECATE /D ISOLATION_AWARE_ENABLED=1 /D NITROUS_SHIT /D ISMAX2013 /D _USING_V110_SDK71_ /D _WINDLL /D _UNICODE /D UNICODE /GF- /Gm- /EHa /MD /GS /Gy /fp:precise /fp:except- /Zc:wchar_t /Zc:forScope /GR /Fo"X64\3DSMAX 2013\\" /Fd".\X64\NOXPLUGIN.DLR.PDB" /Gd /TP /FC /LD   C:\USERS\MARCHEWA\DOCUMENTS\VISUAL STUDIO 2012\PROJECTS\NOXPLUGIN\NOXPLUGIN\NOXCAMERAUI.CPP
^C:\USERS\MARCHEWA\DOCUMENTS\VISUAL STUDIO 2012\PROJECTS\NOXPLUGIN\NOXPLUGIN\NOXTARGET.CPP
/c /I.\midl\x64 /I"C:\Program Files (x86)\Autodesk\3ds Max 2013 SDK\maxsdk\include" /I"C:\Program Files (x86)\Microsoft DirectX SDK (June 2010)\Include" /I"C:\Program Files (x86)\Microsoft Visual Studio 8\VC\libxml2\x64\include" /Zi /nologo /W3 /WX- /O2 /Oi /Ot /D _SECURE_SCL=0 /D WIN32 /D NDEBUG /D _WINDOWS /D _USRDLL /D WIN64 /D _CRT_SECURE_NO_DEPRECATE /D _CRT_NONSTDC_NO_DEPRECATE /D _SCL_SECURE_NO_DEPRECATE /D ISOLATION_AWARE_ENABLED=1 /D NITROUS_SHIT /D ISMAX2013 /D _USING_V110_SDK71_ /D _WINDLL /D _UNICODE /D UNICODE /GF- /Gm- /EHa /MD /GS /Gy /fp:precise /fp:except- /Zc:wchar_t /Zc:forScope /GR /Fo"X64\3DSMAX 2013\\" /Fd".\X64\NOXPLUGIN.DLR.PDB" /Gd /TP /FC /LD   C:\USERS\MARCHEWA\DOCUMENTS\VISUAL STUDIO 2012\PROJECTS\NOXPLUGIN\NOXPLUGIN\NOXTARGET.CPP
^C:\USERS\MARCHEWA\DOCUMENTS\VISUAL STUDIO 2012\PROJECTS\NOXPLUGIN\NOXPLUGIN\LINKRENDERERMAT.CPP
/c /I.\midl\x64 /I"C:\Program Files (x86)\Autodesk\3ds Max 2013 SDK\maxsdk\include" /I"C:\Program Files (x86)\Microsoft DirectX SDK (June 2010)\Include" /I"C:\Program Files (x86)\Microsoft Visual Studio 8\VC\libxml2\x64\include" /Zi /nologo /W3 /WX- /O2 /Oi /Ot /D _SECURE_SCL=0 /D WIN32 /D NDEBUG /D _WINDOWS /D _USRDLL /D WIN64 /D _CRT_SECURE_NO_DEPRECATE /D _CRT_NONSTDC_NO_DEPRECATE /D _SCL_SECURE_NO_DEPRECATE /D ISOLATION_AWARE_ENABLED=1 /D NITROUS_SHIT /D ISMAX2013 /D _USING_V110_SDK71_ /D _WINDLL /D _UNICODE /D UNICODE /GF- /Gm- /EHa /MD /GS /Gy /fp:precise /fp:except- /Zc:wchar_t /Zc:forScope /GR /Fo"X64\3DSMAX 2013\\" /Fd".\X64\NOXPLUGIN.DLR.PDB" /Gd /TP /FC /LD   C:\USERS\MARCHEWA\DOCUMENTS\VISUAL STUDIO 2012\PROJECTS\NOXPLUGIN\NOXPLUGIN\LINKRENDERERMAT.CPP
^C:\USERS\MARCHEWA\DOCUMENTS\VISUAL STUDIO 2012\PROJECTS\NOXPLUGIN\NOXPLUGIN\NOXMATERIAL.CPP
/c /I.\midl\x64 /I"C:\Program Files (x86)\Autodesk\3ds Max 2013 SDK\maxsdk\include" /I"C:\Program Files (x86)\Microsoft DirectX SDK (June 2010)\Include" /I"C:\Program Files (x86)\Microsoft Visual Studio 8\VC\libxml2\x64\include" /Zi /nologo /W3 /WX- /O2 /Oi /Ot /D _SECURE_SCL=0 /D WIN32 /D NDEBUG /D _WINDOWS /D _USRDLL /D WIN64 /D _CRT_SECURE_NO_DEPRECATE /D _CRT_NONSTDC_NO_DEPRECATE /D _SCL_SECURE_NO_DEPRECATE /D ISOLATION_AWARE_ENABLED=1 /D NITROUS_SHIT /D ISMAX2013 /D _USING_V110_SDK71_ /D _WINDLL /D _UNICODE /D UNICODE /GF- /Gm- /EHa /MD /GS /Gy /fp:precise /fp:except- /Zc:wchar_t /Zc:forScope /GR /Fo"X64\3DSMAX 2013\\" /Fd".\X64\NOXPLUGIN.DLR.PDB" /Gd /TP /FC /LD   C:\USERS\MARCHEWA\DOCUMENTS\VISUAL STUDIO 2012\PROJECTS\NOXPLUGIN\NOXPLUGIN\NOXMATERIAL.CPP
^C:\USERS\MARCHEWA\DOCUMENTS\VISUAL STUDIO 2012\PROJECTS\NOXPLUGIN\NOXPLUGIN\NOXMATLOADSAVE.CPP
/c /I.\midl\x64 /I"C:\Program Files (x86)\Autodesk\3ds Max 2013 SDK\maxsdk\include" /I"C:\Program Files (x86)\Microsoft DirectX SDK (June 2010)\Include" /I"C:\Program Files (x86)\Microsoft Visual Studio 8\VC\libxml2\x64\include" /Zi /nologo /W3 /WX- /O2 /Oi /Ot /D _SECURE_SCL=0 /D WIN32 /D NDEBUG /D _WINDOWS /D _USRDLL /D WIN64 /D _CRT_SECURE_NO_DEPRECATE /D _CRT_NONSTDC_NO_DEPRECATE /D _SCL_SECURE_NO_DEPRECATE /D ISOLATION_AWARE_ENABLED=1 /D NITROUS_SHIT /D ISMAX2013 /D _USING_V110_SDK71_ /D _WINDLL /D _UNICODE /D UNICODE /GF- /Gm- /EHa /MD /GS /Gy /fp:precise /fp:except- /Zc:wchar_t /Zc:forScope /GR /Fo"X64\3DSMAX 2013\\" /Fd".\X64\NOXPLUGIN.DLR.PDB" /Gd /TP /FC /LD   C:\USERS\MARCHEWA\DOCUMENTS\VISUAL STUDIO 2012\PROJECTS\NOXPLUGIN\NOXPLUGIN\NOXMATLOADSAVE.CPP
^C:\USERS\MARCHEWA\DOCUMENTS\VISUAL STUDIO 2012\PROJECTS\NOXPLUGIN\NOXPLUGIN\NOXMATPARAMDLG.CPP
/c /I.\midl\x64 /I"C:\Program Files (x86)\Autodesk\3ds Max 2013 SDK\maxsdk\include" /I"C:\Program Files (x86)\Microsoft DirectX SDK (June 2010)\Include" /I"C:\Program Files (x86)\Microsoft Visual Studio 8\VC\libxml2\x64\include" /Zi /nologo /W3 /WX- /O2 /Oi /Ot /D _SECURE_SCL=0 /D WIN32 /D NDEBUG /D _WINDOWS /D _USRDLL /D WIN64 /D _CRT_SECURE_NO_DEPRECATE /D _CRT_NONSTDC_NO_DEPRECATE /D _SCL_SECURE_NO_DEPRECATE /D ISOLATION_AWARE_ENABLED=1 /D NITROUS_SHIT /D ISMAX2013 /D _USING_V110_SDK71_ /D _WINDLL /D _UNICODE /D UNICODE /GF- /Gm- /EHa /MD /GS /Gy /fp:precise /fp:except- /Zc:wchar_t /Zc:forScope /GR /Fo"X64\3DSMAX 2013\\" /Fd".\X64\NOXPLUGIN.DLR.PDB" /Gd /TP /FC /LD   C:\USERS\MARCHEWA\DOCUMENTS\VISUAL STUDIO 2012\PROJECTS\NOXPLUGIN\NOXPLUGIN\NOXMATPARAMDLG.CPP
^C:\USERS\MARCHEWA\DOCUMENTS\VISUAL STUDIO 2012\PROJECTS\NOXPLUGIN\NOXPLUGIN\DECHEX.CPP
/c /I.\midl\x64 /I"C:\Program Files (x86)\Autodesk\3ds Max 2013 SDK\maxsdk\include" /I"C:\Program Files (x86)\Microsoft DirectX SDK (June 2010)\Include" /I"C:\Program Files (x86)\Microsoft Visual Studio 8\VC\libxml2\x64\include" /Zi /nologo /W3 /WX- /O2 /Oi /Ot /D _SECURE_SCL=0 /D WIN32 /D NDEBUG /D _WINDOWS /D _USRDLL /D WIN64 /D _CRT_SECURE_NO_DEPRECATE /D _CRT_NONSTDC_NO_DEPRECATE /D _SCL_SECURE_NO_DEPRECATE /D ISOLATION_AWARE_ENABLED=1 /D NITROUS_SHIT /D ISMAX2013 /D _USING_V110_SDK71_ /D _WINDLL /D _UNICODE /D UNICODE /GF- /Gm- /EHa /MD /GS /Gy /fp:precise /fp:except- /Zc:wchar_t /Zc:forScope /GR /Fo"X64\3DSMAX 2013\\" /Fd".\X64\NOXPLUGIN.DLR.PDB" /Gd /TP /FC /LD   C:\USERS\MARCHEWA\DOCUMENTS\VISUAL STUDIO 2012\PROJECTS\NOXPLUGIN\NOXPLUGIN\DECHEX.CPP
^C:\USERS\MARCHEWA\DOCUMENTS\VISUAL STUDIO 2012\PROJECTS\NOXPLUGIN\NOXPLUGIN\MAXNORMALS.CPP
/c /I.\midl\x64 /I"C:\Program Files (x86)\Autodesk\3ds Max 2013 SDK\maxsdk\include" /I"C:\Program Files (x86)\Microsoft DirectX SDK (June 2010)\Include" /I"C:\Program Files (x86)\Microsoft Visual Studio 8\VC\libxml2\x64\include" /Zi /nologo /W3 /WX- /O2 /Oi /Ot /D _SECURE_SCL=0 /D WIN32 /D NDEBUG /D _WINDOWS /D _USRDLL /D WIN64 /D _CRT_SECURE_NO_DEPRECATE /D _CRT_NONSTDC_NO_DEPRECATE /D _SCL_SECURE_NO_DEPRECATE /D ISOLATION_AWARE_ENABLED=1 /D NITROUS_SHIT /D ISMAX2013 /D _USING_V110_SDK71_ /D _WINDLL /D _UNICODE /D UNICODE /GF- /Gm- /EHa /MD /GS /Gy /fp:precise /fp:except- /Zc:wchar_t /Zc:forScope /GR /Fo"X64\3DSMAX 2013\\" /Fd".\X64\NOXPLUGIN.DLR.PDB" /Gd /TP /FC /LD   C:\USERS\MARCHEWA\DOCUMENTS\VISUAL STUDIO 2012\PROJECTS\NOXPLUGIN\NOXPLUGIN\MAXNORMALS.CPP
^C:\USERS\MARCHEWA\DOCUMENTS\VISUAL STUDIO 2012\PROJECTS\NOXPLUGIN\NOXPLUGIN\NOXBINARYSCENESAVE.CPP
/c /I.\midl\x64 /I"C:\Program Files (x86)\Autodesk\3ds Max 2013 SDK\maxsdk\include" /I"C:\Program Files (x86)\Microsoft DirectX SDK (June 2010)\Include" /I"C:\Program Files (x86)\Microsoft Visual Studio 8\VC\libxml2\x64\include" /Zi /nologo /W3 /WX- /O2 /Oi /Ot /D _SECURE_SCL=0 /D WIN32 /D NDEBUG /D _WINDOWS /D _USRDLL /D WIN64 /D _CRT_SECURE_NO_DEPRECATE /D _CRT_NONSTDC_NO_DEPRECATE /D _SCL_SECURE_NO_DEPRECATE /D ISOLATION_AWARE_ENABLED=1 /D NITROUS_SHIT /D ISMAX2013 /D _USING_V110_SDK71_ /D _WINDLL /D _UNICODE /D UNICODE /GF- /Gm- /EHa /MD /GS /Gy /fp:precise /fp:except- /Zc:wchar_t /Zc:forScope /GR /Fo"X64\3DSMAX 2013\\" /Fd".\X64\NOXPLUGIN.DLR.PDB" /Gd /TP /FC /LD   C:\USERS\MARCHEWA\DOCUMENTS\VISUAL STUDIO 2012\PROJECTS\NOXPLUGIN\NOXPLUGIN\NOXBINARYSCENESAVE.CPP
^C:\USERS\MARCHEWA\DOCUMENTS\VISUAL STUDIO 2012\PROJECTS\NOXPLUGIN\NOXPLUGIN\NOXEXPORTER.CPP
/c /I.\midl\x64 /I"C:\Program Files (x86)\Autodesk\3ds Max 2013 SDK\maxsdk\include" /I"C:\Program Files (x86)\Microsoft DirectX SDK (June 2010)\Include" /I"C:\Program Files (x86)\Microsoft Visual Studio 8\VC\libxml2\x64\include" /Zi /nologo /W3 /WX- /O2 /Oi /Ot /D _SECURE_SCL=0 /D WIN32 /D NDEBUG /D _WINDOWS /D _USRDLL /D WIN64 /D _CRT_SECURE_NO_DEPRECATE /D _CRT_NONSTDC_NO_DEPRECATE /D _SCL_SECURE_NO_DEPRECATE /D ISOLATION_AWARE_ENABLED=1 /D NITROUS_SHIT /D ISMAX2013 /D _USING_V110_SDK71_ /D _WINDLL /D _UNICODE /D UNICODE /GF- /Gm- /EHa /MD /GS /Gy /fp:precise /fp:except- /Zc:wchar_t /Zc:forScope /GR /Fo"X64\3DSMAX 2013\\" /Fd".\X64\NOXPLUGIN.DLR.PDB" /Gd /TP /FC /LD   C:\USERS\MARCHEWA\DOCUMENTS\VISUAL STUDIO 2012\PROJECTS\NOXPLUGIN\NOXPLUGIN\NOXEXPORTER.CPP
^C:\USERS\MARCHEWA\DOCUMENTS\VISUAL STUDIO 2012\PROJECTS\NOXPLUGIN\NOXPLUGIN\NOXSCENESAVE.CPP
/c /I.\midl\x64 /I"C:\Program Files (x86)\Autodesk\3ds Max 2013 SDK\maxsdk\include" /I"C:\Program Files (x86)\Microsoft DirectX SDK (June 2010)\Include" /I"C:\Program Files (x86)\Microsoft Visual Studio 8\VC\libxml2\x64\include" /Zi /nologo /W3 /WX- /O2 /Oi /Ot /D _SECURE_SCL=0 /D WIN32 /D NDEBUG /D _WINDOWS /D _USRDLL /D WIN64 /D _CRT_SECURE_NO_DEPRECATE /D _CRT_NONSTDC_NO_DEPRECATE /D _SCL_SECURE_NO_DEPRECATE /D ISOLATION_AWARE_ENABLED=1 /D NITROUS_SHIT /D ISMAX2013 /D _USING_V110_SDK71_ /D _WINDLL /D _UNICODE /D UNICODE /GF- /Gm- /EHa /MD /GS /Gy /fp:precise /fp:except- /Zc:wchar_t /Zc:forScope /GR /Fo"X64\3DSMAX 2013\\" /Fd".\X64\NOXPLUGIN.DLR.PDB" /Gd /TP /FC /LD   C:\USERS\MARCHEWA\DOCUMENTS\VISUAL STUDIO 2012\PROJECTS\NOXPLUGIN\NOXPLUGIN\NOXSCENESAVE.CPP
^C:\USERS\MARCHEWA\DOCUMENTS\VISUAL STUDIO 2012\PROJECTS\NOXPLUGIN\NOXPLUGIN\LINKRENDERERSUN.CPP
/c /I.\midl\x64 /I"C:\Program Files (x86)\Autodesk\3ds Max 2013 SDK\maxsdk\include" /I"C:\Program Files (x86)\Microsoft DirectX SDK (June 2010)\Include" /I"C:\Program Files (x86)\Microsoft Visual Studio 8\VC\libxml2\x64\include" /Zi /nologo /W3 /WX- /O2 /Oi /Ot /D _SECURE_SCL=0 /D WIN32 /D NDEBUG /D _WINDOWS /D _USRDLL /D WIN64 /D _CRT_SECURE_NO_DEPRECATE /D _CRT_NONSTDC_NO_DEPRECATE /D _SCL_SECURE_NO_DEPRECATE /D ISOLATION_AWARE_ENABLED=1 /D NITROUS_SHIT /D ISMAX2013 /D _USING_V110_SDK71_ /D _WINDLL /D _UNICODE /D UNICODE /GF- /Gm- /EHa /MD /GS /Gy /fp:precise /fp:except- /Zc:wchar_t /Zc:forScope /GR /Fo"X64\3DSMAX 2013\\" /Fd".\X64\NOXPLUGIN.DLR.PDB" /Gd /TP /FC /LD   C:\USERS\MARCHEWA\DOCUMENTS\VISUAL STUDIO 2012\PROJECTS\NOXPLUGIN\NOXPLUGIN\LINKRENDERERSUN.CPP
^C:\USERS\MARCHEWA\DOCUMENTS\VISUAL STUDIO 2012\PROJECTS\NOXPLUGIN\NOXPLUGIN\LINKRENDERERSUNGETSET.CPP
/c /I.\midl\x64 /I"C:\Program Files (x86)\Autodesk\3ds Max 2013 SDK\maxsdk\include" /I"C:\Program Files (x86)\Microsoft DirectX SDK (June 2010)\Include" /I"C:\Program Files (x86)\Microsoft Visual Studio 8\VC\libxml2\x64\include" /Zi /nologo /W3 /WX- /O2 /Oi /Ot /D _SECURE_SCL=0 /D WIN32 /D NDEBUG /D _WINDOWS /D _USRDLL /D WIN64 /D _CRT_SECURE_NO_DEPRECATE /D _CRT_NONSTDC_NO_DEPRECATE /D _SCL_SECURE_NO_DEPRECATE /D ISOLATION_AWARE_ENABLED=1 /D NITROUS_SHIT /D ISMAX2013 /D _USING_V110_SDK71_ /D _WINDLL /D _UNICODE /D UNICODE /GF- /Gm- /EHa /MD /GS /Gy /fp:precise /fp:except- /Zc:wchar_t /Zc:forScope /GR /Fo"X64\3DSMAX 2013\\" /Fd".\X64\NOXPLUGIN.DLR.PDB" /Gd /TP /FC /LD   C:\USERS\MARCHEWA\DOCUMENTS\VISUAL STUDIO 2012\PROJECTS\NOXPLUGIN\NOXPLUGIN\LINKRENDERERSUNGETSET.CPP
^C:\USERS\MARCHEWA\DOCUMENTS\VISUAL STUDIO 2012\PROJECTS\NOXPLUGIN\NOXPLUGIN\NOXSUNLIGHT.CPP
/c /I.\midl\x64 /I"C:\Program Files (x86)\Autodesk\3ds Max 2013 SDK\maxsdk\include" /I"C:\Program Files (x86)\Microsoft DirectX SDK (June 2010)\Include" /I"C:\Program Files (x86)\Microsoft Visual Studio 8\VC\libxml2\x64\include" /Zi /nologo /W3 /WX- /O2 /Oi /Ot /D _SECURE_SCL=0 /D WIN32 /D NDEBUG /D _WINDOWS /D _USRDLL /D WIN64 /D _CRT_SECURE_NO_DEPRECATE /D _CRT_NONSTDC_NO_DEPRECATE /D _SCL_SECURE_NO_DEPRECATE /D ISOLATION_AWARE_ENABLED=1 /D NITROUS_SHIT /D ISMAX2013 /D _USING_V110_SDK71_ /D _WINDLL /D _UNICODE /D UNICODE /GF- /Gm- /EHa /MD /GS /Gy /fp:precise /fp:except- /Zc:wchar_t /Zc:forScope /GR /Fo"X64\3DSMAX 2013\\" /Fd".\X64\NOXPLUGIN.DLR.PDB" /Gd /TP /FC /LD   C:\USERS\MARCHEWA\DOCUMENTS\VISUAL STUDIO 2012\PROJECTS\NOXPLUGIN\NOXPLUGIN\NOXSUNLIGHT.CPP
^C:\USERS\MARCHEWA\DOCUMENTS\VISUAL STUDIO 2012\PROJECTS\NOXPLUGIN\NOXPLUGIN\NOXSUNLIGHTUI.CPP
/c /I.\midl\x64 /I"C:\Program Files (x86)\Autodesk\3ds Max 2013 SDK\maxsdk\include" /I"C:\Program Files (x86)\Microsoft DirectX SDK (June 2010)\Include" /I"C:\Program Files (x86)\Microsoft Visual Studio 8\VC\libxml2\x64\include" /Zi /nologo /W3 /WX- /O2 /Oi /Ot /D _SECURE_SCL=0 /D WIN32 /D NDEBUG /D _WINDOWS /D _USRDLL /D WIN64 /D _CRT_SECURE_NO_DEPRECATE /D _CRT_NONSTDC_NO_DEPRECATE /D _SCL_SECURE_NO_DEPRECATE /D ISOLATION_AWARE_ENABLED=1 /D NITROUS_SHIT /D ISMAX2013 /D _USING_V110_SDK71_ /D _WINDLL /D _UNICODE /D UNICODE /GF- /Gm- /EHa /MD /GS /Gy /fp:precise /fp:except- /Zc:wchar_t /Zc:forScope /GR /Fo"X64\3DSMAX 2013\\" /Fd".\X64\NOXPLUGIN.DLR.PDB" /Gd /TP /FC /LD   C:\USERS\MARCHEWA\DOCUMENTS\VISUAL STUDIO 2012\PROJECTS\NOXPLUGIN\NOXPLUGIN\NOXSUNLIGHTUI.CPP
^C:\USERS\MARCHEWA\DOCUMENTS\VISUAL STUDIO 2012\PROJECTS\NOXPLUGIN\NOXPLUGIN\NOXSUNLOADSAVE.CPP
/c /I.\midl\x64 /I"C:\Program Files (x86)\Autodesk\3ds Max 2013 SDK\maxsdk\include" /I"C:\Program Files (x86)\Microsoft DirectX SDK (June 2010)\Include" /I"C:\Program Files (x86)\Microsoft Visual Studio 8\VC\libxml2\x64\include" /Zi /nologo /W3 /WX- /O2 /Oi /Ot /D _SECURE_SCL=0 /D WIN32 /D NDEBUG /D _WINDOWS /D _USRDLL /D WIN64 /D _CRT_SECURE_NO_DEPRECATE /D _CRT_NONSTDC_NO_DEPRECATE /D _SCL_SECURE_NO_DEPRECATE /D ISOLATION_AWARE_ENABLED=1 /D NITROUS_SHIT /D ISMAX2013 /D _USING_V110_SDK71_ /D _WINDLL /D _UNICODE /D UNICODE /GF- /Gm- /EHa /MD /GS /Gy /fp:precise /fp:except- /Zc:wchar_t /Zc:forScope /GR /Fo"X64\3DSMAX 2013\\" /Fd".\X64\NOXPLUGIN.DLR.PDB" /Gd /TP /FC /LD   C:\USERS\MARCHEWA\DOCUMENTS\VISUAL STUDIO 2012\PROJECTS\NOXPLUGIN\NOXPLUGIN\NOXSUNLOADSAVE.CPP
^C:\USERS\MARCHEWA\DOCUMENTS\VISUAL STUDIO 2012\PROJECTS\NOXPLUGIN\NOXPLUGIN\NOXSUNMESHES.CPP
/c /I.\midl\x64 /I"C:\Program Files (x86)\Autodesk\3ds Max 2013 SDK\maxsdk\include" /I"C:\Program Files (x86)\Microsoft DirectX SDK (June 2010)\Include" /I"C:\Program Files (x86)\Microsoft Visual Studio 8\VC\libxml2\x64\include" /Zi /nologo /W3 /WX- /O2 /Oi /Ot /D _SECURE_SCL=0 /D WIN32 /D NDEBUG /D _WINDOWS /D _USRDLL /D WIN64 /D _CRT_SECURE_NO_DEPRECATE /D _CRT_NONSTDC_NO_DEPRECATE /D _SCL_SECURE_NO_DEPRECATE /D ISOLATION_AWARE_ENABLED=1 /D NITROUS_SHIT /D ISMAX2013 /D _USING_V110_SDK71_ /D _WINDLL /D _UNICODE /D UNICODE /GF- /Gm- /EHa /MD /GS /Gy /fp:precise /fp:except- /Zc:wchar_t /Zc:forScope /GR /Fo"X64\3DSMAX 2013\\" /Fd".\X64\NOXPLUGIN.DLR.PDB" /Gd /TP /FC /LD   C:\USERS\MARCHEWA\DOCUMENTS\VISUAL STUDIO 2012\PROJECTS\NOXPLUGIN\NOXPLUGIN\NOXSUNMESHES.CPP
^C:\USERS\MARCHEWA\DOCUMENTS\VISUAL STUDIO 2012\PROJECTS\NOXPLUGIN\NOXPLUGIN\NOXSUNTARGET.CPP
/c /I.\midl\x64 /I"C:\Program Files (x86)\Autodesk\3ds Max 2013 SDK\maxsdk\include" /I"C:\Program Files (x86)\Microsoft DirectX SDK (June 2010)\Include" /I"C:\Program Files (x86)\Microsoft Visual Studio 8\VC\libxml2\x64\include" /Zi /nologo /W3 /WX- /O2 /Oi /Ot /D _SECURE_SCL=0 /D WIN32 /D NDEBUG /D _WINDOWS /D _USRDLL /D WIN64 /D _CRT_SECURE_NO_DEPRECATE /D _CRT_NONSTDC_NO_DEPRECATE /D _SCL_SECURE_NO_DEPRECATE /D ISOLATION_AWARE_ENABLED=1 /D NITROUS_SHIT /D ISMAX2013 /D _USING_V110_SDK71_ /D _WINDLL /D _UNICODE /D UNICODE /GF- /Gm- /EHa /MD /GS /Gy /fp:precise /fp:except- /Zc:wchar_t /Zc:forScope /GR /Fo"X64\3DSMAX 2013\\" /Fd".\X64\NOXPLUGIN.DLR.PDB" /Gd /TP /FC /LD   C:\USERS\MARCHEWA\DOCUMENTS\VISUAL STUDIO 2012\PROJECTS\NOXPLUGIN\NOXPLUGIN\NOXSUNTARGET.CPP
^C:\USERS\MARCHEWA\DOCUMENTS\VISUAL STUDIO 2012\PROJECTS\NOXPLUGIN\NOXPLUGIN\NOXSUNTARGETUI.CPP
/c /I.\midl\x64 /I"C:\Program Files (x86)\Autodesk\3ds Max 2013 SDK\maxsdk\include" /I"C:\Program Files (x86)\Microsoft DirectX SDK (June 2010)\Include" /I"C:\Program Files (x86)\Microsoft Visual Studio 8\VC\libxml2\x64\include" /Zi /nologo /W3 /WX- /O2 /Oi /Ot /D _SECURE_SCL=0 /D WIN32 /D NDEBUG /D _WINDOWS /D _USRDLL /D WIN64 /D _CRT_SECURE_NO_DEPRECATE /D _CRT_NONSTDC_NO_DEPRECATE /D _SCL_SECURE_NO_DEPRECATE /D ISOLATION_AWARE_ENABLED=1 /D NITROUS_SHIT /D ISMAX2013 /D _USING_V110_SDK71_ /D _WINDLL /D _UNICODE /D UNICODE /GF- /Gm- /EHa /MD /GS /Gy /fp:precise /fp:except- /Zc:wchar_t /Zc:forScope /GR /Fo"X64\3DSMAX 2013\\" /Fd".\X64\NOXPLUGIN.DLR.PDB" /Gd /TP /FC /LD   C:\USERS\MARCHEWA\DOCUMENTS\VISUAL STUDIO 2012\PROJECTS\NOXPLUGIN\NOXPLUGIN\NOXSUNTARGETUI.CPP
