^C:\USERS\MARCHEWA\DOCUMENTS\VISUAL STUDIO 2012\PROJECTS\NOXPLUGIN\NOXPLUGIN\DECHEX.CPP|C:\USERS\MARCHEWA\DOCUMENTS\VISUAL STUDIO 2012\PROJECTS\NOXPLUGIN\NOXPLUGIN\DLLENTRY.CPP|C:\USERS\MARCHEWA\DOCUMENTS\VISUAL STUDIO 2012\PROJECTS\NOXPLUGIN\NOXPLUGIN\LINKRAYTRACER.CPP|C:\USERS\MARCHEWA\DOCUMENTS\VISUAL STUDIO 2012\PROJECTS\NOXPLUGIN\NOXPLUGIN\LINKRENDERERCAM.CPP|C:\USERS\MARCHEWA\DOCUMENTS\VISUAL STUDIO 2012\PROJECTS\NOXPLUGIN\NOXPLUGIN\LINKRENDERERCAMGETSET.CPP|C:\USERS\MARCHEWA\DOCUMENTS\VISUAL STUDIO 2012\PROJECTS\NOXPLUGIN\NOXPLUGIN\LINKRENDERERMAT.CPP|C:\USERS\MARCHEWA\DOCUMENTS\VISUAL STUDIO 2012\PROJECTS\NOXPLUGIN\NOXPLUGIN\LINKRENDERERSUN.CPP|C:\USERS\MARCHEWA\DOCUMENTS\VISUAL STUDIO 2012\PROJECTS\NOXPLUGIN\NOXPLUGIN\LINKRENDERERSUNGETSET.CPP|C:\USERS\MARCHEWA\DOCUMENTS\VISUAL STUDIO 2012\PROJECTS\NOXPLUGIN\NOXPLUGIN\MAXNORMALS.CPP|C:\USERS\MARCHEWA\DOCUMENTS\VISUAL STUDIO 2012\PROJECTS\NOXPLUGIN\NOXPLUGIN\NOXBINARYSCENESAVE.CPP|C:\USERS\MARCHEWA\DOCUMENTS\VISUAL STUDIO 2012\PROJECTS\NOXPLUGIN\NOXPLUGIN\NOXCAMERA.CPP|C:\USERS\MARCHEWA\DOCUMENTS\VISUAL STUDIO 2012\PROJECTS\NOXPLUGIN\NOXPLUGIN\NOXCAMERABASIC.CPP|C:\USERS\MARCHEWA\DOCUMENTS\VISUAL STUDIO 2012\PROJECTS\NOXPLUGIN\NOXPLUGIN\NOXCAMERAFOCUSDIST.CPP|C:\USERS\MARCHEWA\DOCUMENTS\VISUAL STUDIO 2012\PROJECTS\NOXPLUGIN\NOXPLUGIN\NOXCAMERAGETDATA.CPP|C:\USERS\MARCHEWA\DOCUMENTS\VISUAL STUDIO 2012\PROJECTS\NOXPLUGIN\NOXPLUGIN\NOXCAMERALOADSAVE.CPP|C:\USERS\MARCHEWA\DOCUMENTS\VISUAL STUDIO 2012\PROJECTS\NOXPLUGIN\NOXPLUGIN\NOXCAMERAMESH.CPP|C:\USERS\MARCHEWA\DOCUMENTS\VISUAL STUDIO 2012\PROJECTS\NOXPLUGIN\NOXPLUGIN\NOXCAMERASETDATA.CPP|C:\USERS\MARCHEWA\DOCUMENTS\VISUAL STUDIO 2012\PROJECTS\NOXPLUGIN\NOXPLUGIN\NOXCAMERATARGET.CPP|C:\USERS\MARCHEWA\DOCUMENTS\VISUAL STUDIO 2012\PROJECTS\NOXPLUGIN\NOXPLUGIN\NOXCAMERAUI.CPP|C:\USERS\MARCHEWA\DOCUMENTS\VISUAL STUDIO 2012\PROJECTS\NOXPLUGIN\NOXPLUGIN\NOXEXPORTER.CPP|C:\USERS\MARCHEWA\DOCUMENTS\VISUAL STUDIO 2012\PROJECTS\NOXPLUGIN\NOXPLUGIN\NOXMATERIAL.CPP|C:\USERS\MARCHEWA\DOCUMENTS\VISUAL STUDIO 2012\PROJECTS\NOXPLUGIN\NOXPLUGIN\NOXMATLOADSAVE.CPP|C:\USERS\MARCHEWA\DOCUMENTS\VISUAL STUDIO 2012\PROJECTS\NOXPLUGIN\NOXPLUGIN\NOXMATPARAMDLG.CPP|C:\USERS\MARCHEWA\DOCUMENTS\VISUAL STUDIO 2012\PROJECTS\NOXPLUGIN\NOXPLUGIN\NOXRENDERER.CPP|C:\USERS\MARCHEWA\DOCUMENTS\VISUAL STUDIO 2012\PROJECTS\NOXPLUGIN\NOXPLUGIN\NOXRENDERERLOADSAVE.CPP|C:\USERS\MARCHEWA\DOCUMENTS\VISUAL STUDIO 2012\PROJECTS\NOXPLUGIN\NOXPLUGIN\NOXRENDUI.CPP|C:\USERS\MARCHEWA\DOCUMENTS\VISUAL STUDIO 2012\PROJECTS\NOXPLUGIN\NOXPLUGIN\NOXSCENESAVE.CPP|C:\USERS\MARCHEWA\DOCUMENTS\VISUAL STUDIO 2012\PROJECTS\NOXPLUGIN\NOXPLUGIN\NOXSUNLIGHT.CPP|C:\USERS\MARCHEWA\DOCUMENTS\VISUAL STUDIO 2012\PROJECTS\NOXPLUGIN\NOXPLUGIN\NOXSUNLIGHTUI.CPP|C:\USERS\MARCHEWA\DOCUMENTS\VISUAL STUDIO 2012\PROJECTS\NOXPLUGIN\NOXPLUGIN\NOXSUNLOADSAVE.CPP|C:\USERS\MARCHEWA\DOCUMENTS\VISUAL STUDIO 2012\PROJECTS\NOXPLUGIN\NOXPLUGIN\NOXSUNMESHES.CPP|C:\USERS\MARCHEWA\DOCUMENTS\VISUAL STUDIO 2012\PROJECTS\NOXPLUGIN\NOXPLUGIN\NOXSUNTARGET.CPP|C:\USERS\MARCHEWA\DOCUMENTS\VISUAL STUDIO 2012\PROJECTS\NOXPLUGIN\NOXPLUGIN\NOXSUNTARGETUI.CPP|C:\USERS\MARCHEWA\DOCUMENTS\VISUAL STUDIO 2012\PROJECTS\NOXPLUGIN\NOXPLUGIN\NOXTARGET.CPP
C:\USERS\MARCHEWA\DOCUMENTS\VISUAL STUDIO 2012\PROJECTS\NOXPLUGIN\NOXPLUGIN\X64\3DSMAX 2009\NOXMATLOADSAVE.OBJ
C:\USERS\MARCHEWA\DOCUMENTS\VISUAL STUDIO 2012\PROJECTS\NOXPLUGIN\NOXPLUGIN\X64\3DSMAX 2009\NOXMATERIAL.OBJ
C:\USERS\MARCHEWA\DOCUMENTS\VISUAL STUDIO 2012\PROJECTS\NOXPLUGIN\NOXPLUGIN\X64\3DSMAX 2009\LINKRENDERERMAT.OBJ
C:\USERS\MARCHEWA\DOCUMENTS\VISUAL STUDIO 2012\PROJECTS\NOXPLUGIN\NOXPLUGIN\X64\3DSMAX 2009\NOXTARGET.OBJ
C:\USERS\MARCHEWA\DOCUMENTS\VISUAL STUDIO 2012\PROJECTS\NOXPLUGIN\NOXPLUGIN\X64\3DSMAX 2009\NOXCAMERAUI.OBJ
C:\USERS\MARCHEWA\DOCUMENTS\VISUAL STUDIO 2012\PROJECTS\NOXPLUGIN\NOXPLUGIN\X64\3DSMAX 2009\NOXCAMERATARGET.OBJ
C:\USERS\MARCHEWA\DOCUMENTS\VISUAL STUDIO 2012\PROJECTS\NOXPLUGIN\NOXPLUGIN\X64\3DSMAX 2009\NOXCAMERASETDATA.OBJ
C:\USERS\MARCHEWA\DOCUMENTS\VISUAL STUDIO 2012\PROJECTS\NOXPLUGIN\NOXPLUGIN\X64\3DSMAX 2009\NOXCAMERAMESH.OBJ
C:\USERS\MARCHEWA\DOCUMENTS\VISUAL STUDIO 2012\PROJECTS\NOXPLUGIN\NOXPLUGIN\X64\3DSMAX 2009\NOXCAMERALOADSAVE.OBJ
C:\USERS\MARCHEWA\DOCUMENTS\VISUAL STUDIO 2012\PROJECTS\NOXPLUGIN\NOXPLUGIN\X64\3DSMAX 2009\NOXCAMERAGETDATA.OBJ
C:\USERS\MARCHEWA\DOCUMENTS\VISUAL STUDIO 2012\PROJECTS\NOXPLUGIN\NOXPLUGIN\X64\3DSMAX 2009\NOXCAMERAFOCUSDIST.OBJ
C:\USERS\MARCHEWA\DOCUMENTS\VISUAL STUDIO 2012\PROJECTS\NOXPLUGIN\NOXPLUGIN\X64\3DSMAX 2009\NOXCAMERABASIC.OBJ
C:\USERS\MARCHEWA\DOCUMENTS\VISUAL STUDIO 2012\PROJECTS\NOXPLUGIN\NOXPLUGIN\X64\3DSMAX 2009\NOXCAMERA.OBJ
C:\USERS\MARCHEWA\DOCUMENTS\VISUAL STUDIO 2012\PROJECTS\NOXPLUGIN\NOXPLUGIN\X64\3DSMAX 2009\LINKRENDERERCAMGETSET.OBJ
C:\USERS\MARCHEWA\DOCUMENTS\VISUAL STUDIO 2012\PROJECTS\NOXPLUGIN\NOXPLUGIN\X64\3DSMAX 2009\LINKRENDERERCAM.OBJ
C:\USERS\MARCHEWA\DOCUMENTS\VISUAL STUDIO 2012\PROJECTS\NOXPLUGIN\NOXPLUGIN\X64\3DSMAX 2009\NOXRENDUI.OBJ
C:\USERS\MARCHEWA\DOCUMENTS\VISUAL STUDIO 2012\PROJECTS\NOXPLUGIN\NOXPLUGIN\X64\3DSMAX 2009\NOXRENDERERLOADSAVE.OBJ
C:\USERS\MARCHEWA\DOCUMENTS\VISUAL STUDIO 2012\PROJECTS\NOXPLUGIN\NOXPLUGIN\X64\3DSMAX 2009\NOXRENDERER.OBJ
C:\USERS\MARCHEWA\DOCUMENTS\VISUAL STUDIO 2012\PROJECTS\NOXPLUGIN\NOXPLUGIN\X64\3DSMAX 2009\LINKRAYTRACER.OBJ
C:\USERS\MARCHEWA\DOCUMENTS\VISUAL STUDIO 2012\PROJECTS\NOXPLUGIN\NOXPLUGIN\X64\3DSMAX 2009\DLLENTRY.OBJ
C:\USERS\MARCHEWA\DOCUMENTS\VISUAL STUDIO 2012\PROJECTS\NOXPLUGIN\NOXPLUGIN\X64\3DSMAX 2009\NOXSUNTARGETUI.OBJ
C:\USERS\MARCHEWA\DOCUMENTS\VISUAL STUDIO 2012\PROJECTS\NOXPLUGIN\NOXPLUGIN\X64\3DSMAX 2009\NOXSUNTARGET.OBJ
C:\USERS\MARCHEWA\DOCUMENTS\VISUAL STUDIO 2012\PROJECTS\NOXPLUGIN\NOXPLUGIN\X64\3DSMAX 2009\NOXSUNMESHES.OBJ
C:\USERS\MARCHEWA\DOCUMENTS\VISUAL STUDIO 2012\PROJECTS\NOXPLUGIN\NOXPLUGIN\X64\3DSMAX 2009\NOXSUNLOADSAVE.OBJ
C:\USERS\MARCHEWA\DOCUMENTS\VISUAL STUDIO 2012\PROJECTS\NOXPLUGIN\NOXPLUGIN\X64\3DSMAX 2009\NOXSUNLIGHTUI.OBJ
C:\USERS\MARCHEWA\DOCUMENTS\VISUAL STUDIO 2012\PROJECTS\NOXPLUGIN\NOXPLUGIN\X64\3DSMAX 2009\NOXSUNLIGHT.OBJ
C:\USERS\MARCHEWA\DOCUMENTS\VISUAL STUDIO 2012\PROJECTS\NOXPLUGIN\NOXPLUGIN\X64\3DSMAX 2009\LINKRENDERERSUNGETSET.OBJ
C:\USERS\MARCHEWA\DOCUMENTS\VISUAL STUDIO 2012\PROJECTS\NOXPLUGIN\NOXPLUGIN\X64\3DSMAX 2009\LINKRENDERERSUN.OBJ
C:\USERS\MARCHEWA\DOCUMENTS\VISUAL STUDIO 2012\PROJECTS\NOXPLUGIN\NOXPLUGIN\X64\3DSMAX 2009\NOXSCENESAVE.OBJ
C:\USERS\MARCHEWA\DOCUMENTS\VISUAL STUDIO 2012\PROJECTS\NOXPLUGIN\NOXPLUGIN\X64\3DSMAX 2009\NOXEXPORTER.OBJ
C:\USERS\MARCHEWA\DOCUMENTS\VISUAL STUDIO 2012\PROJECTS\NOXPLUGIN\NOXPLUGIN\X64\3DSMAX 2009\NOXBINARYSCENESAVE.OBJ
C:\USERS\MARCHEWA\DOCUMENTS\VISUAL STUDIO 2012\PROJECTS\NOXPLUGIN\NOXPLUGIN\X64\3DSMAX 2009\MAXNORMALS.OBJ
C:\USERS\MARCHEWA\DOCUMENTS\VISUAL STUDIO 2012\PROJECTS\NOXPLUGIN\NOXPLUGIN\X64\3DSMAX 2009\DECHEX.OBJ
C:\USERS\MARCHEWA\DOCUMENTS\VISUAL STUDIO 2012\PROJECTS\NOXPLUGIN\NOXPLUGIN\X64\3DSMAX 2009\NOXMATPARAMDLG.OBJ
^C:\USERS\MARCHEWA\DOCUMENTS\VISUAL STUDIO 2012\PROJECTS\NOXPLUGIN\NOXPLUGIN\DLLENTRY.CPP
C:\USERS\MARCHEWA\DOCUMENTS\VISUAL STUDIO 2012\PROJECTS\NOXPLUGIN\NOXPLUGIN\X64\NOXPLUGIN.DLR.PDB
^C:\USERS\MARCHEWA\DOCUMENTS\VISUAL STUDIO 2012\PROJECTS\NOXPLUGIN\NOXPLUGIN\LINKRAYTRACER.CPP
C:\USERS\MARCHEWA\DOCUMENTS\VISUAL STUDIO 2012\PROJECTS\NOXPLUGIN\NOXPLUGIN\X64\NOXPLUGIN.DLR.PDB
^C:\USERS\MARCHEWA\DOCUMENTS\VISUAL STUDIO 2012\PROJECTS\NOXPLUGIN\NOXPLUGIN\NOXRENDERER.CPP
C:\USERS\MARCHEWA\DOCUMENTS\VISUAL STUDIO 2012\PROJECTS\NOXPLUGIN\NOXPLUGIN\X64\NOXPLUGIN.DLR.PDB
^C:\USERS\MARCHEWA\DOCUMENTS\VISUAL STUDIO 2012\PROJECTS\NOXPLUGIN\NOXPLUGIN\NOXRENDERERLOADSAVE.CPP
C:\USERS\MARCHEWA\DOCUMENTS\VISUAL STUDIO 2012\PROJECTS\NOXPLUGIN\NOXPLUGIN\X64\NOXPLUGIN.DLR.PDB
^C:\USERS\MARCHEWA\DOCUMENTS\VISUAL STUDIO 2012\PROJECTS\NOXPLUGIN\NOXPLUGIN\NOXRENDUI.CPP
C:\USERS\MARCHEWA\DOCUMENTS\VISUAL STUDIO 2012\PROJECTS\NOXPLUGIN\NOXPLUGIN\X64\NOXPLUGIN.DLR.PDB
^C:\USERS\MARCHEWA\DOCUMENTS\VISUAL STUDIO 2012\PROJECTS\NOXPLUGIN\NOXPLUGIN\LINKRENDERERCAM.CPP
C:\USERS\MARCHEWA\DOCUMENTS\VISUAL STUDIO 2012\PROJECTS\NOXPLUGIN\NOXPLUGIN\X64\NOXPLUGIN.DLR.PDB
^C:\USERS\MARCHEWA\DOCUMENTS\VISUAL STUDIO 2012\PROJECTS\NOXPLUGIN\NOXPLUGIN\LINKRENDERERCAMGETSET.CPP
C:\USERS\MARCHEWA\DOCUMENTS\VISUAL STUDIO 2012\PROJECTS\NOXPLUGIN\NOXPLUGIN\X64\NOXPLUGIN.DLR.PDB
^C:\USERS\MARCHEWA\DOCUMENTS\VISUAL STUDIO 2012\PROJECTS\NOXPLUGIN\NOXPLUGIN\NOXCAMERA.CPP
C:\USERS\MARCHEWA\DOCUMENTS\VISUAL STUDIO 2012\PROJECTS\NOXPLUGIN\NOXPLUGIN\X64\NOXPLUGIN.DLR.PDB
^C:\USERS\MARCHEWA\DOCUMENTS\VISUAL STUDIO 2012\PROJECTS\NOXPLUGIN\NOXPLUGIN\NOXCAMERABASIC.CPP
C:\USERS\MARCHEWA\DOCUMENTS\VISUAL STUDIO 2012\PROJECTS\NOXPLUGIN\NOXPLUGIN\X64\NOXPLUGIN.DLR.PDB
^C:\USERS\MARCHEWA\DOCUMENTS\VISUAL STUDIO 2012\PROJECTS\NOXPLUGIN\NOXPLUGIN\NOXCAMERAFOCUSDIST.CPP
C:\USERS\MARCHEWA\DOCUMENTS\VISUAL STUDIO 2012\PROJECTS\NOXPLUGIN\NOXPLUGIN\X64\NOXPLUGIN.DLR.PDB
^C:\USERS\MARCHEWA\DOCUMENTS\VISUAL STUDIO 2012\PROJECTS\NOXPLUGIN\NOXPLUGIN\NOXCAMERAGETDATA.CPP
C:\USERS\MARCHEWA\DOCUMENTS\VISUAL STUDIO 2012\PROJECTS\NOXPLUGIN\NOXPLUGIN\X64\NOXPLUGIN.DLR.PDB
^C:\USERS\MARCHEWA\DOCUMENTS\VISUAL STUDIO 2012\PROJECTS\NOXPLUGIN\NOXPLUGIN\NOXCAMERALOADSAVE.CPP
C:\USERS\MARCHEWA\DOCUMENTS\VISUAL STUDIO 2012\PROJECTS\NOXPLUGIN\NOXPLUGIN\X64\NOXPLUGIN.DLR.PDB
^C:\USERS\MARCHEWA\DOCUMENTS\VISUAL STUDIO 2012\PROJECTS\NOXPLUGIN\NOXPLUGIN\NOXCAMERAMESH.CPP
C:\USERS\MARCHEWA\DOCUMENTS\VISUAL STUDIO 2012\PROJECTS\NOXPLUGIN\NOXPLUGIN\X64\NOXPLUGIN.DLR.PDB
^C:\USERS\MARCHEWA\DOCUMENTS\VISUAL STUDIO 2012\PROJECTS\NOXPLUGIN\NOXPLUGIN\NOXCAMERASETDATA.CPP
C:\USERS\MARCHEWA\DOCUMENTS\VISUAL STUDIO 2012\PROJECTS\NOXPLUGIN\NOXPLUGIN\X64\NOXPLUGIN.DLR.PDB
^C:\USERS\MARCHEWA\DOCUMENTS\VISUAL STUDIO 2012\PROJECTS\NOXPLUGIN\NOXPLUGIN\NOXCAMERATARGET.CPP
C:\USERS\MARCHEWA\DOCUMENTS\VISUAL STUDIO 2012\PROJECTS\NOXPLUGIN\NOXPLUGIN\X64\NOXPLUGIN.DLR.PDB
^C:\USERS\MARCHEWA\DOCUMENTS\VISUAL STUDIO 2012\PROJECTS\NOXPLUGIN\NOXPLUGIN\NOXCAMERAUI.CPP
C:\USERS\MARCHEWA\DOCUMENTS\VISUAL STUDIO 2012\PROJECTS\NOXPLUGIN\NOXPLUGIN\X64\NOXPLUGIN.DLR.PDB
^C:\USERS\MARCHEWA\DOCUMENTS\VISUAL STUDIO 2012\PROJECTS\NOXPLUGIN\NOXPLUGIN\NOXTARGET.CPP
C:\USERS\MARCHEWA\DOCUMENTS\VISUAL STUDIO 2012\PROJECTS\NOXPLUGIN\NOXPLUGIN\X64\NOXPLUGIN.DLR.PDB
^C:\USERS\MARCHEWA\DOCUMENTS\VISUAL STUDIO 2012\PROJECTS\NOXPLUGIN\NOXPLUGIN\LINKRENDERERMAT.CPP
C:\USERS\MARCHEWA\DOCUMENTS\VISUAL STUDIO 2012\PROJECTS\NOXPLUGIN\NOXPLUGIN\X64\NOXPLUGIN.DLR.PDB
^C:\USERS\MARCHEWA\DOCUMENTS\VISUAL STUDIO 2012\PROJECTS\NOXPLUGIN\NOXPLUGIN\NOXMATERIAL.CPP
C:\USERS\MARCHEWA\DOCUMENTS\VISUAL STUDIO 2012\PROJECTS\NOXPLUGIN\NOXPLUGIN\X64\NOXPLUGIN.DLR.PDB
^C:\USERS\MARCHEWA\DOCUMENTS\VISUAL STUDIO 2012\PROJECTS\NOXPLUGIN\NOXPLUGIN\NOXMATLOADSAVE.CPP
C:\USERS\MARCHEWA\DOCUMENTS\VISUAL STUDIO 2012\PROJECTS\NOXPLUGIN\NOXPLUGIN\X64\NOXPLUGIN.DLR.PDB
^C:\USERS\MARCHEWA\DOCUMENTS\VISUAL STUDIO 2012\PROJECTS\NOXPLUGIN\NOXPLUGIN\NOXMATPARAMDLG.CPP
C:\USERS\MARCHEWA\DOCUMENTS\VISUAL STUDIO 2012\PROJECTS\NOXPLUGIN\NOXPLUGIN\X64\NOXPLUGIN.DLR.PDB
^C:\USERS\MARCHEWA\DOCUMENTS\VISUAL STUDIO 2012\PROJECTS\NOXPLUGIN\NOXPLUGIN\DECHEX.CPP
C:\USERS\MARCHEWA\DOCUMENTS\VISUAL STUDIO 2012\PROJECTS\NOXPLUGIN\NOXPLUGIN\X64\NOXPLUGIN.DLR.PDB
^C:\USERS\MARCHEWA\DOCUMENTS\VISUAL STUDIO 2012\PROJECTS\NOXPLUGIN\NOXPLUGIN\MAXNORMALS.CPP
C:\USERS\MARCHEWA\DOCUMENTS\VISUAL STUDIO 2012\PROJECTS\NOXPLUGIN\NOXPLUGIN\X64\NOXPLUGIN.DLR.PDB
^C:\USERS\MARCHEWA\DOCUMENTS\VISUAL STUDIO 2012\PROJECTS\NOXPLUGIN\NOXPLUGIN\NOXBINARYSCENESAVE.CPP
C:\USERS\MARCHEWA\DOCUMENTS\VISUAL STUDIO 2012\PROJECTS\NOXPLUGIN\NOXPLUGIN\X64\NOXPLUGIN.DLR.PDB
^C:\USERS\MARCHEWA\DOCUMENTS\VISUAL STUDIO 2012\PROJECTS\NOXPLUGIN\NOXPLUGIN\NOXEXPORTER.CPP
C:\USERS\MARCHEWA\DOCUMENTS\VISUAL STUDIO 2012\PROJECTS\NOXPLUGIN\NOXPLUGIN\X64\NOXPLUGIN.DLR.PDB
^C:\USERS\MARCHEWA\DOCUMENTS\VISUAL STUDIO 2012\PROJECTS\NOXPLUGIN\NOXPLUGIN\NOXSCENESAVE.CPP
C:\USERS\MARCHEWA\DOCUMENTS\VISUAL STUDIO 2012\PROJECTS\NOXPLUGIN\NOXPLUGIN\X64\NOXPLUGIN.DLR.PDB
^C:\USERS\MARCHEWA\DOCUMENTS\VISUAL STUDIO 2012\PROJECTS\NOXPLUGIN\NOXPLUGIN\LINKRENDERERSUN.CPP
C:\USERS\MARCHEWA\DOCUMENTS\VISUAL STUDIO 2012\PROJECTS\NOXPLUGIN\NOXPLUGIN\X64\NOXPLUGIN.DLR.PDB
^C:\USERS\MARCHEWA\DOCUMENTS\VISUAL STUDIO 2012\PROJECTS\NOXPLUGIN\NOXPLUGIN\LINKRENDERERSUNGETSET.CPP
C:\USERS\MARCHEWA\DOCUMENTS\VISUAL STUDIO 2012\PROJECTS\NOXPLUGIN\NOXPLUGIN\X64\NOXPLUGIN.DLR.PDB
^C:\USERS\MARCHEWA\DOCUMENTS\VISUAL STUDIO 2012\PROJECTS\NOXPLUGIN\NOXPLUGIN\NOXSUNLIGHT.CPP
C:\USERS\MARCHEWA\DOCUMENTS\VISUAL STUDIO 2012\PROJECTS\NOXPLUGIN\NOXPLUGIN\X64\NOXPLUGIN.DLR.PDB
^C:\USERS\MARCHEWA\DOCUMENTS\VISUAL STUDIO 2012\PROJECTS\NOXPLUGIN\NOXPLUGIN\NOXSUNLIGHTUI.CPP
C:\USERS\MARCHEWA\DOCUMENTS\VISUAL STUDIO 2012\PROJECTS\NOXPLUGIN\NOXPLUGIN\X64\NOXPLUGIN.DLR.PDB
^C:\USERS\MARCHEWA\DOCUMENTS\VISUAL STUDIO 2012\PROJECTS\NOXPLUGIN\NOXPLUGIN\NOXSUNLOADSAVE.CPP
C:\USERS\MARCHEWA\DOCUMENTS\VISUAL STUDIO 2012\PROJECTS\NOXPLUGIN\NOXPLUGIN\X64\NOXPLUGIN.DLR.PDB
^C:\USERS\MARCHEWA\DOCUMENTS\VISUAL STUDIO 2012\PROJECTS\NOXPLUGIN\NOXPLUGIN\NOXSUNMESHES.CPP
C:\USERS\MARCHEWA\DOCUMENTS\VISUAL STUDIO 2012\PROJECTS\NOXPLUGIN\NOXPLUGIN\X64\NOXPLUGIN.DLR.PDB
^C:\USERS\MARCHEWA\DOCUMENTS\VISUAL STUDIO 2012\PROJECTS\NOXPLUGIN\NOXPLUGIN\NOXSUNTARGET.CPP
C:\USERS\MARCHEWA\DOCUMENTS\VISUAL STUDIO 2012\PROJECTS\NOXPLUGIN\NOXPLUGIN\X64\NOXPLUGIN.DLR.PDB
^C:\USERS\MARCHEWA\DOCUMENTS\VISUAL STUDIO 2012\PROJECTS\NOXPLUGIN\NOXPLUGIN\NOXSUNTARGETUI.CPP
C:\USERS\MARCHEWA\DOCUMENTS\VISUAL STUDIO 2012\PROJECTS\NOXPLUGIN\NOXPLUGIN\X64\NOXPLUGIN.DLR.PDB
