CONTAINER Xnoxscene
{
	NAME Xnoxscene;

	GROUP
	{
		STATICTEXT NOX_CONSOLE_DEBUG {}
		BOOL NOX_SHOW_INFO { }
		BOOL NOX_SHOW_INFO_DETAIL { }
		BOOL NOX_SHOW_WARNING { }
		BOOL NOX_SHOW_ERROR { }
		SEPARATOR { LINE; }
		BOOL NOX_RUN_NOX { }
	}
}
